causeTime, posResCount
10, 6
20, 7
30, 7
40, 6
50, 8
60, 3
70, 7
80, 6
90, 3
100, 4
110, 6
120, 6
130, 5
140, 4
150, 5
160, 4
170, 7
180, 6
190, 4
200, 5
210, 8
220, 6
230, 3
240, 6
250, 1
260, 4
270, 4
280, 6
290, 8
300, 3
310, 4
320, 4
330, 5
340, 4
350, 3
360, 6
370, 3
380, 10
390, 7
400, 8
410, 6
420, 7
430, 7
440, 5
450, 10
460, 9
470, 6
480, 7
490, 10
500, 6
510, 4
520, 8
530, 3
540, 3
550, 4
560, 2
570, 5
580, 3
590, 2
600, 5
610, 3
620, 7
630, 3
640, 5
650, 6
660, 7
670, 6
680, 2
690, 1
700, 6
710, 1
720, 1
730, 4
740, 2
750, 4
760, 2
770, 2
780, 1
790, 4
800, 0
810, 2
820, 1
830, 4
840, 2
850, 4
860, 3
870, 4
880, 6
890, 8
900, 8
910, 10
920, 10
930, 10
940, 10
950, 10
960, 10
970, 10
980, 10
990, 10
