causeTime, posResCount, posResCount
10,4,7
20,4,5
30,3,4
40,3,4
50,3,6
60,5,6
70,5,6
80,4,10
90,7,10
100,4,10
110,10,10
120,10,10
130,10,10
140,10,10
150,10,10
160,10,10
170,10,10
180,10,10
190,10,10
200,10,10
210,10,10
220,10,10
230,10,10
240,10,10
250,10,10
260,10,10
270,10,10
280,10,10
290,10,10
300,10,10
310,10,10
320,10,10
330,10,10
340,10,10
350,10,10
360,10,10
370,10,10
380,10,10
390,10,10
400,10,10
410,10,10
420,10,10
430,10,10
440,10,10
450,10,10
460,10,10
470,10,10
480,10,10
490,10,10
500,10,10
510,10,10
520,10,10
530,10,10
540,10,10
550,10,10
560,10,10
570,10,10
580,10,10
590,10,10
600,10,10
610,10,10
620,10,10
630,10,10
640,10,10
650,10,10
660,10,10
670,10,10
680,10,10
690,10,10
700,10,10
710,10,10
720,10,10
730,10,10
740,10,10
750,10,10
760,10,10
770,10,10
780,10,10
790,10,10
800,10,10
810,10,10
820,10,10
830,10,10
840,10,10
850,10,10
860,9,10
870,10,10
880,10,10
890,10,10
900,10,10
910,10,10
920,10,10
930,10,10
940,10,10
950,10,10
960,10,10
970,10,10
980,10,10
990,10,10
