Time,P_x1,P_x2,P_x3,P_x4,P_x5,P_x6,P_x7,P_x8,P_x9,P_x10,P_x11,P_x12,P_x13,P_x14,P_x15,P_x16,P_x17,P_x18,P_x19,P_x20
0,100,300,0,1,0,0,0,300,100,0,0,0,0,0,0,0,0,0,0,0
0.496598226024847,99,299,1,1,0,0,0,300,100,0,0,0,0,0,0,0,0,0,0,0
1.5064941612747,96,296,4,1,0,0,0,300,100,0,0,0,0,0,0,0,0,0,0,0
2.90293277696005,94,294,6,1,0,0,0,300,100,0,0,0,0,0,0,0,0,0,0,0
3.83218391550217,89,289,11,1,0,0,0,300,100,0,0,0,0,0,0,0,0,0,0,0
4.94436934249619,87,287,13,1,0,0,0,300,100,0,0,0,0,0,0,0,0,0,0,0
5.5089969373826,84,284,16,1,0,0,0,300,100,0,0,0,0,0,0,0,0,0,0,0
6.87613911037828,83,283,17,1,0,0,0,300,100,0,0,0,0,0,0,0,0,0,0,0
7.76642781187168,80,280,20,1,0,0,0,300,100,0,0,0,0,0,0,0,0,0,0,0
8.20436758096842,79,279,21,1,0,0,0,300,100,0,0,0,0,0,0,0,0,0,0,0
9.94148422068694,78,278,22,1,0,0,0,300,100,0,0,0,0,0,0,0,0,0,0,0
10.1842680985794,77,277,23,1,0,0,0,300,100,0,0,0,0,0,0,0,0,0,0,0
11.9764118676581,76,276,24,1,0,0,0,300,100,0,0,0,0,0,0,0,0,0,0,0
12.6135354896642,75,275,25,1,0,0,0,300,100,0,0,0,0,0,0,0,0,0,0,0
13.122474602657,74,274,26,1,0,0,0,300,100,0,0,0,0,0,0,0,0,0,0,0
14.9091984365754,72,272,28,1,0,0,0,300,100,0,0,0,0,0,0,0,0,0,0,0
15.2250281790286,71,271,29,1,0,0,0,300,100,0,0,0,0,0,0,0,0,0,0,0
16.9065616472012,68,268,32,1,0,0,0,300,100,0,0,0,0,0,0,0,0,0,0,0
17.212050054773,67,267,33,1,0,0,0,300,100,0,0,0,0,0,0,0,0,0,0,0
18.593581866493,65,265,35,1,0,0,0,300,100,0,0,0,0,0,0,0,0,0,0,0
19.927490855275,63,263,37,1,0,0,0,300,100,0,0,0,0,0,0,0,0,0,0,0
20.3928899942121,62,262,38,1,0,0,0,300,100,0,0,0,0,0,0,0,0,0,0,0
21.737913947874,59,259,41,1,0,0,0,300,100,0,0,0,0,0,0,0,0,0,0,0
22.8923315369968,58,258,42,1,0,0,0,300,100,0,0,0,0,0,0,0,0,0,0,0
23.8438284965194,56,256,44,1,0,0,0,300,100,0,0,0,0,0,0,0,0,0,0,0
25.575952973574,55,255,45,1,0,0,0,300,100,0,0,0,0,0,0,0,0,0,0,0
26.321980145169,54,254,46,1,0,0,0,300,100,0,0,0,0,0,0,0,0,0,0,0
27.6750586212076,52,252,48,1,0,0,0,300,100,0,0,0,0,0,0,0,0,0,0,0
28.6758422531579,51,251,49,1,0,0,0,300,100,0,0,0,0,0,0,0,0,0,0,0
30.7024266037839,50,250,50,1,0,0,0,300,100,0,0,0,0,0,0,0,0,0,0,0
31.7105744393814,48,248,52,1,0,0,0,300,100,0,0,0,0,0,0,0,0,0,0,0
32.4799409986635,46,246,54,1,0,0,0,300,100,0,0,0,0,0,0,0,0,0,0,0
33.9093930939613,45,245,55,1,0,0,0,300,100,0,0,0,0,0,0,0,0,0,0,0
34.1694564962178,43,243,57,1,0,0,0,300,100,0,0,0,0,0,0,0,0,0,0,0
36.7273301584832,41,241,59,1,0,0,0,300,100,0,0,0,0,0,0,0,0,0,0,0
39.8777985136854,38,238,62,1,0,0,0,300,100,0,0,0,0,0,0,0,0,0,0,0
40.7504549529554,36,236,64,1,0,0,0,300,100,0,0,0,0,0,0,0,0,0,0,0
44.7221479783778,34,234,66,1,0,0,0,300,100,0,0,0,0,0,0,0,0,0,0,0
45.8729407298343,32,232,68,1,0,0,0,300,100,0,0,0,0,0,0,0,0,0,0,0
48.9966148458419,32,232,67,0,1,0,0,300,100,0,0,0,0,0,0,0,0,0,0,0
49.6096103517971,31,231,68,0,0,0,1,300,100,0,0,0,0,0,0,0,0,0,0,0
51.9394433494719,30,230,69,0,0,0,1,300,100,0,0,0,0,0,0,0,0,0,0,0
53.4699263658673,27,227,72,0,0,0,1,300,100,0,0,0,0,0,0,0,0,0,0,0
55.3575505487981,26,226,73,0,0,0,1,300,100,0,0,0,0,0,0,0,0,0,0,0
60.8076191358145,24,224,75,0,0,0,1,300,100,0,0,0,0,0,0,0,0,0,0,0
62.3414334618335,23,223,76,0,0,0,1,300,100,0,0,0,0,0,0,0,0,0,0,0
63.9474134747276,22,222,77,0,0,0,1,300,100,0,0,0,0,0,0,0,0,0,0,0
64.4945588961683,21,221,78,0,0,0,1,300,100,0,0,0,0,0,0,0,0,0,0,0
65.972416294723,21,221,78,0,0,0,1,300,99,0,1,0,0,0,0,0,0,0,0,0
69.8940551562645,21,221,78,0,0,0,1,300,99,0,0,0,0,0,0,0,1,0,0,0
71.0692047817994,21,221,78,0,0,0,1,300,99,0,0,0,0,0,0,0,0,0,1,0
73.5568718334369,19,219,80,0,0,0,1,300,99,0,0,0,0,0,0,0,0,0,1,0
74.7759566903341,18,218,81,0,0,0,1,300,99,0,0,0,0,0,0,0,0,0,1,0
75.3954013896203,17,217,82,0,0,0,1,300,99,0,0,0,0,0,0,0,0,0,1,0
76.2065258588328,16,216,83,0,0,0,1,300,99,0,0,0,0,0,0,0,0,0,1,0
78.5563672079965,14,214,85,0,0,0,1,300,99,0,0,0,0,0,0,0,0,0,1,0
95.5105082411064,13,213,86,0,0,0,1,300,99,0,0,0,0,0,0,0,0,0,1,0
98.8887742616476,13,213,86,0,0,0,1,300,98,0,1,0,0,0,0,0,0,0,1,0
100.760133909522,13,213,86,0,0,0,1,300,98,0,0,0,0,0,1,0,0,0,1,0
101.069428945938,13,213,86,0,0,0,1,300,98,0,0,0,0,0,0,0,1,0,1,0
102.76483108835,12,212,87,0,0,0,1,300,98,0,0,0,0,0,0,0,0,0,2,0
103.846673583593,9,209,90,0,0,0,1,300,98,0,0,0,0,0,0,0,0,0,2,0
108.308753912203,8,208,91,0,0,0,1,300,98,0,0,0,0,0,0,0,0,0,2,0
116.878054466283,8,208,91,0,0,0,1,300,97,0,1,0,0,0,0,0,0,0,2,0
117.953233397899,7,207,92,0,0,0,1,300,97,0,1,0,0,0,0,0,0,0,2,0
118.686350010042,6,206,93,0,0,0,1,300,97,0,1,0,0,0,0,0,0,0,2,0
119.968257520194,6,206,93,0,0,0,1,300,97,0,0,0,1,0,0,0,0,0,2,0
120.088847412337,6,206,93,0,0,0,1,300,97,0,0,0,0,0,1,0,0,0,2,0
122.400710761526,5,205,94,0,0,0,1,300,97,0,0,0,0,0,0,0,1,0,2,0
123.631554342399,5,205,94,0,0,0,1,300,97,0,0,0,0,0,0,0,0,0,3,0
133.31217655568,4,204,95,0,0,0,1,300,97,0,0,0,0,0,0,0,0,0,3,0
143.851310682561,2,202,97,0,0,0,1,300,97,0,0,0,0,0,0,0,0,0,3,0
150.99630179948,1,201,98,0,0,0,1,300,97,0,0,0,0,0,0,0,0,0,3,0
154.924112948374,0,200,99,0,0,0,1,300,97,0,0,0,0,0,0,0,0,0,3,0
197.980692360604,0,200,99,0,0,0,1,300,96,0,1,0,0,0,0,0,0,0,3,0
198.8248852277,0,200,99,0,0,0,1,300,96,0,0,0,0,0,0,0,1,0,3,0
201.2631999558,0,200,99,0,0,0,1,300,96,0,0,0,0,0,0,0,0,0,4,0
229.301987253819,0,200,99,0,0,0,1,300,95,0,1,0,0,0,0,0,0,0,4,0
230.064157171547,0,200,99,0,0,0,1,300,95,0,0,0,1,0,0,0,0,0,4,0
234.538680220259,0,200,99,0,0,0,1,300,95,0,0,0,0,0,0,0,1,0,4,0
236.800462986332,0,200,99,0,0,0,1,300,95,0,0,0,0,0,0,0,0,0,5,0
249.425068173464,0,200,99,0,0,0,1,300,94,0,0,0,1,0,0,0,0,0,5,0
252.421412763636,0,200,99,0,0,0,1,300,94,0,0,0,0,0,0,0,1,0,5,0
253.308071473067,0,200,99,0,0,0,1,300,94,0,0,0,0,0,0,0,0,0,6,0
370.057718819796,0,200,99,0,0,0,1,300,93,0,1,0,0,0,0,0,0,0,6,0
371.48171600563,0,200,99,0,0,0,1,300,93,0,0,0,1,0,0,0,0,0,6,0
372.690926416483,0,200,99,0,0,0,1,300,93,0,0,0,0,0,0,0,0,0,7,0
414.804325223566,0,200,99,0,0,0,1,300,92,0,1,0,0,0,0,0,0,0,7,0
416.659271371111,0,200,99,0,0,0,1,300,92,0,0,0,1,0,0,0,0,0,7,0
419.272880622673,0,200,99,0,0,0,1,300,92,0,0,0,0,0,0,0,1,0,7,0
422.045097497925,0,200,99,0,0,0,1,300,92,0,0,0,0,0,0,0,0,0,8,0
465.773144568272,0,200,99,0,0,0,1,300,91,0,1,0,0,0,0,0,0,0,8,0
466.966661654572,0,200,99,0,0,0,1,300,91,0,0,0,1,0,0,0,0,0,8,0
468.63024618722,0,200,99,0,0,0,1,300,90,0,1,0,0,0,1,0,0,0,8,0
470.353701378776,0,200,99,0,0,0,1,300,90,0,0,0,0,0,2,0,0,0,8,0
471.940986732604,0,200,99,0,0,0,1,300,90,0,0,0,0,0,1,0,0,0,9,0
472.156623406946,0,200,99,0,0,0,1,300,90,0,0,0,0,0,0,0,1,0,9,0
474.694103579029,0,200,99,0,0,0,1,300,90,0,0,0,0,0,0,0,0,0,10,0
479.720111259726,0,200,99,0,0,0,1,300,89,0,0,0,1,0,0,0,0,0,10,0
480.900377940256,0,200,99,0,0,0,1,300,89,0,0,0,0,0,0,0,1,0,10,0
483.84813569559,0,200,99,0,0,0,1,300,89,0,0,0,0,0,0,0,0,0,11,0
494.405870365645,0,200,99,0,0,0,1,300,88,0,1,0,0,0,0,0,0,0,11,0
495.692856897872,0,200,99,0,0,0,1,300,88,0,0,0,1,0,0,0,0,0,11,0
496.973139514008,0,200,99,0,0,0,1,300,88,0,0,0,0,0,1,0,0,0,11,0
497.508549250248,0,200,99,0,0,0,1,300,88,0,0,0,0,0,0,0,1,0,11,0
500.669245934622,0,200,99,0,0,0,1,300,88,0,0,0,0,0,0,0,0,0,12,0
628.991200689254,0,200,99,0,0,0,1,300,87,0,0,0,1,0,0,0,0,0,12,0
629.517275089432,0,200,99,0,0,0,1,300,87,0,0,0,0,0,0,0,0,0,13,0
698.380613984366,0,200,99,0,0,0,1,300,86,0,0,0,1,0,0,0,0,0,13,0
699.8944510812,0,200,99,0,0,0,1,300,86,0,0,0,0,0,1,0,0,0,13,0
701.900484964872,0,200,99,0,0,0,1,300,86,0,0,0,0,0,0,0,1,0,13,0
702.087799421171,0,200,99,0,0,0,1,300,86,0,0,0,0,0,0,0,0,0,14,0
753.399640581342,0,200,99,0,0,0,1,300,85,0,0,0,1,0,0,0,0,0,14,0
754.866330271903,0,200,99,0,0,0,1,300,85,0,0,0,0,0,0,0,0,0,15,0
893.497298298773,0,200,99,0,0,0,1,300,84,0,1,0,0,0,0,0,0,0,15,0
895.634172690054,0,200,99,0,0,0,1,300,84,0,0,0,1,0,0,0,0,0,15,0
899.613248997402,0,200,99,0,0,0,1,300,84,0,0,0,0,0,1,0,0,0,15,0
900.95546650974,0,200,99,0,0,0,1,300,84,0,0,0,0,0,0,0,1,0,15,0
901.51746750579,0,200,99,0,0,0,1,300,84,0,0,0,0,0,0,0,0,0,16,0
937.480752710431,0,200,99,0,0,0,1,300,83,0,1,0,0,0,0,0,0,0,16,0
938.032599295096,0,200,99,0,0,0,1,300,83,0,0,0,1,0,0,0,0,0,16,0
939.297951321281,0,200,99,0,0,0,1,300,83,0,0,0,0,0,1,0,0,0,16,0
940.302483439818,0,200,99,0,0,0,1,300,83,0,0,0,0,0,0,0,1,0,16,0
943.83875724055,0,200,99,0,0,0,1,300,83,0,0,0,0,0,0,0,0,0,17,0
1206.93264771311,0,200,99,0,0,0,1,300,82,0,1,0,0,0,0,0,0,0,17,0
