Time,P_x1,P_x2,P_x3,P_x4,P_x5,P_x6,P_x7,P_x8,P_x9,P_x10,P_x11,P_x12,P_x13,P_x14,P_x15,P_x16,P_x17,P_x18,P_x19,P_x20
0,2,202,97,0,0,1,0,297,100,0,0,0,0,0,0,0,0,0,0,3
3.55612413731572,1,201,98,0,0,1,0,297,100,0,0,0,0,0,0,0,0,0,0,3
5.14382631617633,1,201,98,0,0,1,0,296,100,1,0,0,0,0,0,0,0,0,0,3
6.83158937019812,1,201,98,0,0,1,0,296,100,0,0,0,0,1,0,0,0,0,0,3
7.60644201309783,1,201,98,0,0,1,0,296,100,0,0,0,0,0,0,0,0,0,0,4
23.9514533176216,0,200,99,0,0,1,0,296,100,0,0,0,0,0,0,0,0,0,0,4
31.9093189527727,0,200,99,0,0,1,0,295,100,0,0,0,0,1,0,0,0,0,0,4
32.8505927347255,0,200,99,0,0,1,0,295,100,0,0,0,0,0,0,1,0,0,0,4
34.5872211217682,0,200,99,0,0,1,0,295,100,0,0,0,0,0,0,0,0,1,0,4
35.3690453302375,0,200,99,0,0,1,0,295,100,0,0,0,0,0,0,0,0,0,0,5
41.745092114536,0,200,99,0,0,1,0,294,100,1,0,0,0,0,0,0,0,0,0,5
42.2081811314307,0,200,99,0,0,1,0,294,100,0,0,1,0,0,0,0,0,0,0,5
43.5360931243669,0,200,99,0,0,1,0,294,100,0,0,0,0,0,0,1,0,0,0,5
44.2174193277779,0,200,99,0,0,1,0,294,100,0,0,0,0,0,0,0,0,1,0,5
46.810218814178,0,200,99,0,0,1,0,294,100,0,0,0,0,0,0,0,0,0,0,6
51.1121925532407,0,200,99,0,0,1,0,293,100,1,0,0,0,0,0,0,0,0,0,6
56.7332208448189,0,200,99,0,0,1,0,293,100,0,0,1,0,0,0,0,0,0,0,6
57.9720529217332,0,200,99,0,0,1,0,293,100,0,0,0,0,0,0,1,0,0,0,6
58.9747394127816,0,200,99,0,0,1,0,293,100,0,0,0,0,0,0,0,0,0,0,7
66.7232068025752,0,200,99,0,0,1,0,292,100,1,0,0,0,0,0,0,0,0,0,7
69.4615947382367,0,200,99,0,0,1,0,292,100,0,0,0,0,1,0,0,0,0,0,7
71.0535095224756,0,200,99,0,0,1,0,292,100,0,0,0,0,0,0,1,0,0,0,7
72.4618113363879,0,200,99,0,0,1,0,292,100,0,0,0,0,0,0,0,0,0,0,8
149.019591221689,0,200,99,0,0,1,0,291,100,1,0,0,0,0,0,0,0,0,0,8
150.94254254378,0,200,99,0,0,1,0,291,100,0,0,1,0,0,0,0,0,0,0,8
151.669861044689,0,200,99,0,0,1,0,291,100,0,0,0,0,1,0,0,0,0,0,8
152.439800811635,0,200,99,0,0,1,0,291,100,0,0,0,0,0,0,0,0,1,0,8
155.355039325665,0,200,99,0,0,1,0,291,100,0,0,0,0,0,0,0,0,0,0,9
159.718089050926,0,200,99,0,0,1,0,290,100,1,0,0,0,0,0,0,0,0,0,9
161.703025383699,0,200,99,0,0,1,0,290,100,0,0,1,0,0,0,0,0,0,0,9
162.288005266868,0,200,99,0,0,1,0,290,100,0,0,0,0,0,0,1,0,0,0,9
165.989769861936,0,200,99,0,0,1,0,290,100,0,0,0,0,0,0,0,0,0,0,10
178.526558970138,0,200,99,0,0,1,0,289,100,0,0,1,0,0,0,0,0,0,0,10
180.756225545459,0,200,99,0,0,1,0,289,100,0,0,0,0,1,0,0,0,0,0,10
181.668188004496,0,200,99,0,0,1,0,289,100,0,0,0,0,0,0,1,0,0,0,10
184.805980812954,0,200,99,0,0,1,0,289,100,0,0,0,0,0,0,0,0,1,0,10
185.149585100588,0,200,99,0,0,1,0,289,100,0,0,0,0,0,0,0,0,0,0,11
333.854661409375,0,200,99,0,0,1,0,288,100,1,0,0,0,0,0,0,0,0,0,11
335.661516359462,0,200,99,0,0,1,0,288,100,0,0,1,0,0,0,0,0,0,0,11
336.239790660975,0,200,99,0,0,1,0,288,100,0,0,0,0,1,0,0,0,0,0,11
337.364889528069,0,200,99,0,0,1,0,288,100,0,0,0,0,0,0,0,0,1,0,11
339.176857013931,0,200,99,0,0,1,0,288,100,0,0,0,0,0,0,0,0,0,0,12
357.790516503131,0,200,99,0,0,1,0,287,100,1,0,0,0,0,0,0,0,0,0,12
358.936962855045,0,200,99,0,0,1,0,287,100,0,0,1,0,0,0,0,0,0,0,12
360.500749541752,0,200,99,0,0,1,0,287,100,0,0,0,0,1,0,0,0,0,0,12
361.842999522459,0,200,99,0,0,1,0,287,100,0,0,0,0,0,0,0,0,1,0,12
362.021263980216,0,200,99,0,0,1,0,287,100,0,0,0,0,0,0,0,0,0,0,13
363.959803946253,0,200,99,0,0,1,0,286,100,1,0,0,0,0,0,0,0,0,0,13
365.655676706639,0,200,99,0,0,1,0,286,100,0,0,0,0,0,0,0,0,1,0,13
369.255146883544,0,200,99,0,0,1,0,285,100,0,0,0,0,1,0,0,0,1,0,13
370.722231694755,0,200,99,0,0,1,0,285,100,0,0,0,0,0,0,0,0,1,0,14
371.088374390309,0,200,99,0,0,1,0,285,100,0,0,0,0,0,0,0,0,0,0,15
372.637485965651,0,200,99,0,0,1,0,284,100,1,0,0,0,0,0,0,0,0,0,15
373.80867903827,0,200,99,0,0,1,0,284,100,0,0,0,0,0,0,0,0,1,0,15
374.115648970263,0,200,99,0,0,1,0,284,100,0,0,0,0,0,0,0,0,0,0,16
394.864300617146,0,200,99,0,0,1,0,283,100,1,0,0,0,0,0,0,0,0,0,16
395.707907289968,0,200,99,0,0,1,0,283,100,0,0,1,0,0,0,0,0,0,0,16
396.104552800155,0,200,99,0,0,1,0,283,100,0,0,0,0,1,0,0,0,0,0,16
399.195857400111,0,200,99,0,0,1,0,283,100,0,0,0,0,0,0,1,0,0,0,16
401.386842989982,0,200,99,0,0,1,0,283,100,0,0,0,0,0,0,0,0,0,0,17
417.470406701609,0,200,99,0,0,1,0,282,100,1,0,0,0,0,0,0,0,0,0,17
418.52794669201,0,200,99,0,0,1,0,282,100,0,0,1,0,0,0,0,0,0,0,17
423.967226355357,0,200,99,0,0,1,0,282,100,0,0,0,0,0,0,0,0,1,0,17
424.530757300263,0,200,99,0,0,1,0,281,100,1,0,0,0,0,0,0,0,1,0,17
426.67858633334,0,200,99,0,0,1,0,281,100,0,0,1,0,0,0,0,0,1,0,17
427.417430581251,0,200,99,0,0,1,0,281,100,0,0,0,0,1,0,0,0,0,0,18
429.465793283523,0,200,99,0,0,1,0,281,100,0,0,0,0,0,0,0,0,1,0,18
431.159796395659,0,200,99,0,0,1,0,281,100,0,0,0,0,0,0,0,0,0,0,19
438.970222203596,0,200,99,0,0,1,0,280,100,1,0,0,0,0,0,0,0,0,0,19
439.866549832129,0,200,99,0,0,1,0,280,100,0,0,0,0,1,0,0,0,0,0,19
440.068814346889,0,200,99,0,0,1,0,280,100,0,0,0,0,0,0,1,0,0,0,19
441.70439578529,0,200,99,0,0,1,0,280,100,0,0,0,0,0,0,0,0,1,0,19
442.90608249111,0,200,99,0,0,1,0,280,100,0,0,0,0,0,0,0,0,0,0,20
444.875955626589,0,200,99,0,0,1,0,279,100,1,0,0,0,0,0,0,0,0,0,20
445.975328791666,0,200,99,0,0,1,0,279,100,0,0,1,0,0,0,0,0,0,0,20
448.825068411797,0,200,99,0,0,1,0,278,100,1,0,0,0,1,0,0,0,0,0,20
449.844558670647,0,200,99,0,0,1,0,278,100,0,0,1,0,0,0,1,0,0,0,20
450.325750244765,0,200,99,0,0,1,0,278,100,0,0,0,0,1,0,0,0,1,0,20
451.983531350722,0,200,99,0,0,1,0,278,100,0,0,0,0,0,0,1,0,0,0,21
452.359426347368,0,200,99,0,0,1,0,278,100,0,0,0,0,0,0,0,0,0,0,22
480.007151523915,0,200,99,0,0,1,0,277,100,1,0,0,0,0,0,0,0,0,0,22
481.391329381666,0,200,99,0,0,1,0,277,100,0,0,1,0,0,0,0,0,0,0,22
482.818935900572,0,200,99,0,0,1,0,276,100,0,0,0,0,0,0,2,0,0,0,22
484.157239364253,0,200,99,0,0,1,0,276,100,0,0,0,0,0,0,1,0,0,0,23
488.645098481576,0,200,99,0,0,1,0,276,100,0,0,0,0,0,0,0,0,1,0,23
489.074175358841,0,200,99,0,0,1,0,276,100,0,0,0,0,0,0,0,0,0,0,24
532.248763115047,0,200,99,0,0,1,0,275,100,1,0,0,0,0,0,0,0,0,0,24
533.094800433615,0,200,99,0,0,1,0,275,100,0,0,1,0,0,0,0,0,0,0,24
534.01107160427,0,200,99,0,0,1,0,275,100,0,0,0,0,1,0,0,0,0,0,24
537.817367712972,0,200,99,0,0,1,0,275,100,0,0,0,0,0,0,1,0,0,0,24
538.198994093848,0,200,99,0,0,1,0,275,100,0,0,0,0,0,0,0,0,0,0,25
552.854035521263,0,200,99,0,0,1,0,274,100,1,0,0,0,0,0,0,0,0,0,25
553.60701137449,0,200,99,0,0,1,0,274,100,0,0,1,0,0,0,0,0,0,0,25
554.902171099483,0,200,99,0,0,1,0,274,100,0,0,0,0,0,0,0,0,1,0,25
558.429086420495,0,200,99,0,0,1,0,274,100,0,0,0,0,0,0,0,0,0,0,26
562.220929887473,0,200,99,0,0,1,0,273,100,1,0,0,0,0,0,0,0,0,0,26
563.398090245637,0,200,99,0,0,1,0,273,100,0,0,1,0,0,0,0,0,0,0,26
564.655900976196,0,200,99,0,0,1,0,273,100,0,0,0,0,1,0,0,0,0,0,26
565.264902376694,0,200,99,0,0,1,0,273,100,0,0,0,0,0,0,0,0,0,0,27
575.554893850703,0,200,99,0,0,1,0,272,100,1,0,0,0,0,0,0,0,0,0,27
578.454987913632,0,200,99,0,0,1,0,272,100,0,0,1,0,0,0,0,0,0,0,27
579.964651612661,0,200,99,0,0,1,0,272,100,0,0,0,0,0,0,1,0,0,0,27
581.967979985105,0,200,99,0,0,1,0,272,100,0,0,0,0,0,0,0,0,0,0,28
587.52343083404,0,200,99,0,0,1,0,271,100,1,0,0,0,0,0,0,0,0,0,28
588.10771871696,0,200,99,0,0,1,0,271,100,0,0,0,0,1,0,0,0,0,0,28
590.584985091874,0,200,99,0,0,1,0,271,100,0,0,0,0,0,0,1,0,0,0,28
591.545666669633,0,200,99,0,0,1,0,271,100,0,0,0,0,0,0,0,0,1,0,28
592.024682815355,0,200,99,0,0,1,0,271,100,0,0,0,0,0,0,0,0,0,0,29
600.625594737297,0,200,99,0,0,1,0,270,100,1,0,0,0,0,0,0,0,0,0,29
601.905010931779,0,200,99,0,0,1,0,270,100,0,0,0,0,0,0,1,0,0,0,29
603.612721737812,0,200,99,0,0,1,0,270,100,0,0,0,0,0,0,0,0,0,0,30
606.549749656633,0,200,99,0,0,1,0,269,100,1,0,0,0,0,0,0,0,0,0,30
607.486463744742,0,200,99,0,0,1,0,269,100,0,0,1,0,0,0,0,0,0,0,30
608.949258506002,0,200,99,0,0,1,0,269,100,0,0,0,0,0,0,0,0,1,0,30
609.660733702742,0,200,99,0,0,1,0,268,100,1,0,0,0,0,0,0,0,0,0,31
610.800665136999,0,200,99,0,0,1,0,268,100,0,0,0,0,1,0,0,0,0,0,31
611.275260399709,0,200,99,0,0,1,0,268,100,0,0,0,0,0,0,0,0,1,0,31
612.871861396098,0,200,99,0,0,1,0,268,100,0,0,0,0,0,0,0,0,0,0,32
624.788370290389,0,200,99,0,0,1,0,267,100,0,0,0,0,0,0,1,0,0,0,32
625.238791861941,0,200,99,0,0,1,0,267,100,0,0,0,0,0,0,0,0,1,0,32
626.535591438535,0,200,99,0,0,1,0,267,100,0,0,0,0,0,0,0,0,0,0,33
644.961957255862,0,200,99,0,0,1,0,266,100,0,0,0,0,1,0,0,0,0,0,33
645.868322822158,0,200,99,0,0,1,0,266,100,0,0,0,0,0,0,1,0,0,0,33
646.742302167784,0,200,99,0,0,1,0,266,100,0,0,0,0,0,0,0,0,1,0,33
648.051697562853,0,200,99,0,0,1,0,266,100,0,0,0,0,0,0,0,0,0,0,34
734.434007702654,0,200,99,0,0,1,0,265,100,1,0,0,0,0,0,0,0,0,0,34
736.690945658635,0,200,99,0,0,1,0,265,100,0,0,1,0,0,0,0,0,0,0,34
737.272764412725,0,200,99,0,0,1,0,265,100,0,0,0,0,1,0,0,0,0,0,34
738.268484834133,0,200,99,0,0,1,0,265,100,0,0,0,0,0,0,0,0,0,0,35
751.156494194044,0,200,99,0,0,1,0,264,100,1,0,0,0,0,0,0,0,0,0,35
752.61719837901,0,200,99,0,0,1,0,263,100,1,0,1,0,0,0,0,0,0,0,35
753.412231317737,0,200,99,0,0,1,0,263,100,1,0,0,0,1,0,0,0,0,0,35
754.788863145273,0,200,99,0,0,1,0,263,100,0,0,1,0,0,0,0,0,0,0,36
755.978237443028,0,200,99,0,0,1,0,263,100,0,0,0,0,0,0,0,0,0,0,37
763.771830797038,0,200,99,0,0,1,0,262,100,0,0,0,0,0,0,0,0,1,0,37
764.280317085491,0,200,99,0,0,1,0,262,100,0,0,0,0,0,0,0,0,0,0,38
765.497159905209,0,200,99,0,0,1,0,261,100,0,0,1,0,0,0,0,0,0,0,38
766.140490185378,0,200,99,0,0,1,0,261,100,0,0,0,0,1,0,0,0,0,0,38
768.695306682311,0,200,99,0,0,1,0,261,100,0,0,0,0,0,0,0,0,1,0,38
770.250581790587,0,200,99,0,0,1,0,261,100,0,0,0,0,0,0,0,0,0,0,39
771.938454373351,0,200,99,0,0,1,0,260,100,1,0,0,0,0,0,0,0,0,0,39
772.802495335352,0,200,99,0,0,1,0,260,100,0,0,1,0,0,0,0,0,0,0,39
773.583662063737,0,200,99,0,0,1,0,260,100,0,0,0,0,1,0,0,0,0,0,39
774.982631197652,0,200,99,0,0,1,0,260,100,0,0,0,0,0,0,1,0,0,0,39
776.085519216691,0,200,99,0,0,1,0,260,100,0,0,0,0,0,0,0,0,1,0,39
777.262716612983,0,200,99,0,0,1,0,260,100,0,0,0,0,0,0,0,0,0,0,40
786.46627417428,0,200,99,0,0,1,0,258,100,1,0,1,0,0,0,0,0,0,0,40
787.576693309521,0,200,99,0,0,1,0,258,100,1,0,0,0,1,0,0,0,0,0,40
788.991754024191,0,200,99,0,0,1,0,258,100,0,0,0,0,2,0,0,0,0,0,40
789.622373792407,0,200,99,0,0,1,0,258,100,0,0,0,0,1,0,0,0,1,0,40
790.408980271649,0,200,99,0,0,1,0,258,100,0,0,0,0,1,0,0,0,0,0,41
792.136145328238,0,200,99,0,0,1,0,258,100,0,0,0,0,0,0,0,0,1,0,41
794.646288089485,0,200,99,0,0,1,0,257,100,0,0,1,0,0,0,0,0,0,0,42
795.141783653919,0,200,99,0,0,1,0,257,100,0,0,0,0,1,0,0,0,0,0,42
796.9180199332,0,200,99,0,0,1,0,257,100,0,0,0,0,0,0,1,0,0,0,42
798.89980116042,0,200,99,0,0,1,0,257,100,0,0,0,0,0,0,0,0,1,0,42
800.227862626529,0,200,99,0,0,1,0,257,100,0,0,0,0,0,0,0,0,0,0,43
801.667526904806,0,200,99,0,0,1,0,256,100,1,0,0,0,0,0,0,0,0,0,43
802.180408288618,0,200,99,0,0,1,0,256,100,0,0,1,0,0,0,0,0,0,0,43
805.489605088146,0,200,99,0,0,1,0,256,100,0,0,0,0,0,0,1,0,0,0,43
806.399360150698,0,200,99,0,0,1,0,256,100,0,0,0,0,0,0,0,0,1,0,43
807.624075361644,0,200,99,0,0,1,0,256,100,0,0,0,0,0,0,0,0,0,0,44
815.917118107333,0,200,99,0,0,1,0,255,100,0,0,0,0,1,0,0,0,0,0,44
816.976349475316,0,200,99,0,0,1,0,255,100,0,0,0,0,0,0,1,0,0,0,44
819.403017198125,0,200,99,0,0,1,0,255,100,0,0,0,0,0,0,0,0,1,0,44
822.126871370956,0,200,99,0,0,1,0,254,100,0,0,1,0,0,0,0,0,1,0,44
823.29250851491,0,200,99,0,0,1,0,254,100,0,0,1,0,0,0,0,0,0,0,45
825.86303317461,0,200,99,0,0,1,0,254,100,0,0,0,0,0,0,1,0,0,0,45
826.880977400964,0,200,99,0,0,1,0,253,100,0,0,0,0,1,0,1,0,0,0,45
827.87706325881,0,200,99,0,0,1,0,253,100,0,0,0,0,1,0,0,0,0,0,46
828.416612158768,0,200,99,0,0,1,0,253,100,0,0,0,0,0,0,1,0,0,0,46
829.065770226181,0,200,99,0,0,1,0,253,100,0,0,0,0,0,0,0,0,1,0,46
830.790055716226,0,200,99,0,0,1,0,253,100,0,0,0,0,0,0,0,0,0,0,47
846.808516508805,0,200,99,0,0,1,0,252,100,1,0,0,0,0,0,0,0,0,0,47
