Time,P_x1,P_x2,P_x3,P_x4,P_x5,P_x6,P_x7,P_x8,P_x9,P_x10,P_x11,P_x12,P_x13,P_x14,P_x15,P_x16,P_x17,P_x18,P_x19,P_x20
0,0,200,99,0,0,1,0,266,100,0,0,1,0,0,0,0,0,0,0,33
0.96036602500534,0,200,99,0,0,1,0,266,100,0,0,0,0,0,0,0,0,0,0,34
66.5713659967158,0,200,99,0,0,1,0,265,100,1,0,0,0,0,0,0,0,0,0,34
67.8520347758236,0,200,99,0,0,1,0,265,100,0,0,0,0,1,0,0,0,0,0,34
68.5604951871003,0,200,99,0,0,1,0,265,100,0,0,0,0,0,0,0,0,1,0,34
69.1233005158034,0,200,99,0,0,1,0,265,100,0,0,0,0,0,0,0,0,0,0,35
75.7054736143131,0,200,99,0,0,1,0,264,100,0,0,0,0,1,0,0,0,0,0,35
76.7590307608501,0,200,99,0,0,1,0,264,100,0,0,0,0,0,0,0,0,1,0,35
78.6775344920715,0,200,99,0,0,1,0,263,100,1,0,0,0,0,0,0,0,0,0,36
79.1032032042047,0,200,99,0,0,1,0,263,100,0,0,1,0,0,0,0,0,0,0,36
80.3844809866341,0,200,99,0,0,1,0,263,100,0,0,0,0,1,0,0,0,0,0,36
82.4822380810749,0,200,99,0,0,1,0,263,100,0,0,0,0,0,0,0,0,1,0,36
85.9790725315322,0,200,99,0,0,1,0,262,100,1,0,0,0,0,0,0,0,0,0,37
86.225634026964,0,200,99,0,0,1,0,262,100,0,0,1,0,0,0,0,0,0,0,37
87.8822181413918,0,200,99,0,0,1,0,262,100,0,0,0,0,0,0,0,0,1,0,37
88.0007289767473,0,200,99,0,0,1,0,262,100,0,0,0,0,0,0,0,0,0,0,38
102.417701758171,0,200,99,0,0,1,0,261,100,1,0,0,0,0,0,0,0,0,0,38
103.465566441905,0,200,99,0,0,1,0,261,100,0,0,1,0,0,0,0,0,0,0,38
104.881991691213,0,200,99,0,0,1,0,261,100,0,0,0,0,0,0,1,0,0,0,38
105.170979971956,0,200,99,0,0,1,0,261,100,0,0,0,0,0,0,0,0,0,0,39
113.938651447019,0,200,99,0,0,1,0,260,100,0,0,0,0,1,0,0,0,0,0,39
116.011227837964,0,200,99,0,0,1,0,260,100,0,0,0,0,0,0,1,0,0,0,39
117.710346605474,0,200,99,0,0,1,0,260,100,0,0,0,0,0,0,0,0,0,0,40
230.393520616759,0,200,99,0,0,1,0,259,100,1,0,0,0,0,0,0,0,0,0,40
