Time,P_x1,P_x2,P_x3,P_x4,P_x5,P_x6,P_x7,P_x8,P_x9,P_x10,P_x11,P_x12,P_x13,P_x14,P_x15,P_x16,P_x17,P_x18,P_x19,P_x20
0,0,200,99,0,0,1,0,285,100,1,0,0,0,0,0,0,0,0,0,14
0.314370376190958,0,200,99,0,0,1,0,285,100,0,0,1,0,0,0,0,0,0,0,14
1.76859997034988,0,200,99,0,0,1,0,285,100,0,0,0,0,0,0,1,0,0,0,14
2.68383380929741,0,200,99,0,0,1,0,284,100,0,0,1,0,0,0,1,0,0,0,14
3.90983684363733,0,200,99,0,0,1,0,284,100,0,0,0,0,0,0,2,0,0,0,14
4.96468414948068,0,200,99,0,0,1,0,284,100,0,0,0,0,0,0,0,0,1,0,15
7.15160883462046,0,200,99,0,0,1,0,284,100,0,0,0,0,0,0,0,0,0,0,16
14.9340824438061,0,200,99,0,0,1,0,283,100,0,0,1,0,0,0,0,0,0,0,16
15.6977111700891,0,200,99,0,0,1,0,283,100,0,0,0,0,0,0,1,0,0,0,16
17.4832002505842,0,200,99,0,0,1,0,283,100,0,0,0,0,0,0,0,0,1,0,16
18.7632354816643,0,200,99,0,0,1,0,283,100,0,0,0,0,0,0,0,0,0,0,17
32.6496488089927,0,200,99,0,0,1,0,282,100,1,0,0,0,0,0,0,0,0,0,17
33.9115528883931,0,200,99,0,0,1,0,282,100,0,0,0,0,0,0,1,0,0,0,17
37.9972264047452,0,200,99,0,0,1,0,282,100,0,0,0,0,0,0,0,0,0,0,18
50.9789752648432,0,200,99,0,0,1,0,281,100,1,0,0,0,0,0,0,0,0,0,18
51.5610954222478,0,200,99,0,0,1,0,281,100,0,0,1,0,0,0,0,0,0,0,18
53.6370057576179,0,200,99,0,0,1,0,281,100,0,0,0,0,1,0,0,0,0,0,18
56.5786768979931,0,200,99,0,0,1,0,281,100,0,0,0,0,0,0,1,0,0,0,18
58.8985048452157,0,200,99,0,0,1,0,281,100,0,0,0,0,0,0,0,0,0,0,19
72.9528448882193,0,200,99,0,0,1,0,280,100,1,0,0,0,0,0,0,0,0,0,19
73.4913287448335,0,200,99,0,0,1,0,280,100,0,0,1,0,0,0,0,0,0,0,19
74.9079154876657,0,200,99,0,0,1,0,279,100,0,0,2,0,0,0,0,0,0,0,19
76.3449292898564,0,200,99,0,0,1,0,279,100,0,0,1,0,1,0,0,0,0,0,19
77.6358342462428,0,200,99,0,0,1,0,279,100,0,0,1,0,0,0,1,0,0,0,19
78.8495936014885,0,200,99,0,0,1,0,279,100,0,0,0,0,0,0,2,0,0,0,19
79.8055485707572,0,200,99,0,0,1,0,279,100,0,0,0,0,0,0,0,0,2,0,19
80.6265539866191,0,200,99,0,0,1,0,279,100,0,0,0,0,0,0,0,0,0,0,21
84.4464118112489,0,200,99,0,0,1,0,278,100,1,0,0,0,0,0,0,0,0,0,21
85.6212603477943,0,200,99,0,0,1,0,278,100,0,0,1,0,0,0,0,0,0,0,21
86.3701394175678,0,200,99,0,0,1,0,278,100,0,0,0,0,1,0,0,0,0,0,21
89.2262168100321,0,200,99,0,0,1,0,278,100,0,0,0,0,0,0,1,0,0,0,21
90.7917775395054,0,200,99,0,0,1,0,278,100,0,0,0,0,0,0,0,0,1,0,21
92.1101163224037,0,200,99,0,0,1,0,278,100,0,0,0,0,0,0,0,0,0,0,22
114.560894896975,0,200,99,0,0,1,0,277,100,1,0,0,0,0,0,0,0,0,0,22
115.538775084748,0,200,99,0,0,1,0,276,100,1,0,1,0,0,0,0,0,0,0,22
116.641838986141,0,200,99,0,0,1,0,276,100,0,0,1,0,1,0,0,0,0,0,22
117.642987002356,0,200,99,0,0,1,0,276,100,0,0,0,0,1,0,1,0,0,0,22
118.091681665096,0,200,99,0,0,1,0,276,100,0,0,0,0,0,0,2,0,0,0,22
119.292283409874,0,200,99,0,0,1,0,276,100,0,0,0,0,0,0,1,0,1,0,22
120.339221393903,0,200,99,0,0,1,0,276,100,0,0,0,0,0,0,0,0,1,0,23
121.082346710318,0,200,99,0,0,1,0,276,100,0,0,0,0,0,0,0,0,0,0,24
127.445705053141,0,200,99,0,0,1,0,275,100,1,0,0,0,0,0,0,0,0,0,24
128.886313238841,0,200,99,0,0,1,0,275,100,0,0,1,0,0,0,0,0,0,0,24
130.593289370126,0,200,99,0,0,1,0,275,100,0,0,0,0,1,0,0,0,0,0,24
131.285943371559,0,200,99,0,0,1,0,275,100,0,0,0,0,0,0,0,0,1,0,24
132.016598027144,0,200,99,0,0,1,0,275,100,0,0,0,0,0,0,0,0,0,0,25
182.250497144365,0,200,99,0,0,1,0,274,100,1,0,0,0,0,0,0,0,0,0,25
183.864756461037,0,200,99,0,0,1,0,274,100,0,0,1,0,0,0,0,0,0,0,25
184.546190048709,0,200,99,0,0,1,0,274,100,0,0,0,0,1,0,0,0,0,0,25
185.874596525555,0,200,99,0,0,1,0,274,100,0,0,0,0,0,0,1,0,0,0,25
187.929318424174,0,200,99,0,0,1,0,274,100,0,0,0,0,0,0,0,0,1,0,25
188.865497920636,0,200,99,0,0,1,0,273,100,0,0,0,0,1,0,0,0,0,0,26
189.896933379422,0,200,99,0,0,1,0,273,100,0,0,0,0,0,0,1,0,0,0,26
192.114073604044,0,200,99,0,0,1,0,273,100,0,0,0,0,0,0,0,0,1,0,26
193.157206390323,0,200,99,0,0,1,0,273,100,0,0,0,0,0,0,0,0,0,0,27
203.867951148373,0,200,99,0,0,1,0,272,100,1,0,0,0,0,0,0,0,0,0,27
206.037631976462,0,200,99,0,0,1,0,272,100,0,0,1,0,0,0,0,0,0,0,27
208.189550269629,0,200,99,0,0,1,0,272,100,0,0,0,0,1,0,0,0,0,0,27
209.810085041957,0,200,99,0,0,1,0,272,100,0,0,0,0,0,0,0,0,0,0,28
236.739163828282,0,200,99,0,0,1,0,271,100,1,0,0,0,0,0,0,0,0,0,28
237.818374462121,0,200,99,0,0,1,0,271,100,0,0,1,0,0,0,0,0,0,0,28
238.825149247541,0,200,99,0,0,1,0,271,100,0,0,0,0,0,0,1,0,0,0,28
240.489307364549,0,200,99,0,0,1,0,271,100,0,0,0,0,0,0,0,0,0,0,29
316.64492435257,0,200,99,0,0,1,0,270,100,1,0,0,0,0,0,0,0,0,0,29
317.925050423184,0,200,99,0,0,1,0,270,100,0,0,1,0,0,0,0,0,0,0,29
321.929874033208,0,200,99,0,0,1,0,270,100,0,0,0,0,1,0,0,0,0,0,29
322.731841702859,0,200,99,0,0,1,0,269,100,0,0,0,0,1,0,0,0,0,0,30
323.795425457567,0,200,99,0,0,1,0,269,100,0,0,0,0,0,0,1,0,0,0,30
324.832937825363,0,200,99,0,0,1,0,269,100,0,0,0,0,0,0,0,0,0,0,31
364.210420687518,0,200,99,0,0,1,0,268,100,1,0,0,0,0,0,0,0,0,0,31
365.740305810647,0,200,99,0,0,1,0,268,100,0,0,1,0,0,0,0,0,0,0,31
366.926774370314,0,200,99,0,0,1,0,268,100,0,0,0,0,0,0,0,0,0,0,32
370.701388486541,0,200,99,0,0,1,0,267,100,1,0,0,0,0,0,0,0,0,0,32
371.889089256333,0,200,99,0,0,1,0,267,100,0,0,1,0,0,0,0,0,0,0,32
372.900061439901,0,200,99,0,0,1,0,267,100,0,0,0,0,0,0,0,0,0,0,33
390.970686902475,0,200,99,0,0,1,0,266,100,0,0,0,0,1,0,0,0,0,0,33
392.273488636344,0,200,99,0,0,1,0,266,100,0,0,0,0,0,0,1,0,0,0,33
393.424815568705,0,200,99,0,0,1,0,266,100,0,0,0,0,0,0,0,0,1,0,33
394.897087466806,0,200,99,0,0,1,0,266,100,0,0,0,0,0,0,0,0,0,0,34
403.225499656043,0,200,99,0,0,1,0,265,100,0,0,1,0,0,0,0,0,0,0,34
404.585754139639,0,200,99,0,0,1,0,265,100,0,0,0,0,1,0,0,0,0,0,34
406.492318074638,0,200,99,0,0,1,0,265,100,0,0,0,0,0,0,0,0,1,0,34
407.924289959954,0,200,99,0,0,1,0,265,100,0,0,0,0,0,0,0,0,0,0,35
410.770556188363,0,200,99,0,0,1,0,264,100,0,0,1,0,0,0,0,0,0,0,35
411.991948558035,0,200,99,0,0,1,0,264,100,0,0,0,0,1,0,0,0,0,0,35
412.761981943607,0,200,99,0,0,1,0,264,100,0,0,0,0,0,0,1,0,0,0,35
413.820184103166,0,200,99,0,0,1,0,264,100,0,0,0,0,0,0,0,0,1,0,35
414.886931930374,0,200,99,0,0,1,0,264,100,0,0,0,0,0,0,0,0,0,0,36
444.985230926806,0,200,99,0,0,1,0,263,100,0,0,1,0,0,0,0,0,0,0,36
445.28541262455,0,200,99,0,0,1,0,263,100,0,0,0,0,0,0,0,0,1,0,36
446.291060134605,0,200,99,0,0,1,0,263,100,0,0,0,0,0,0,0,0,0,0,37
488.414413140422,0,200,99,0,0,1,0,262,100,0,0,1,0,0,0,0,0,0,0,37
489.965349025061,0,200,99,0,0,1,0,262,100,0,0,0,0,1,0,0,0,0,0,37
490.645020512406,0,200,99,0,0,1,0,262,100,0,0,0,0,0,0,0,0,1,0,37
491.993377921975,0,200,99,0,0,1,0,262,100,0,0,0,0,0,0,0,0,0,0,38
514.787579347151,0,200,99,0,0,1,0,261,100,1,0,0,0,0,0,0,0,0,0,38
515.721133910997,0,200,99,0,0,1,0,261,100,0,0,0,0,1,0,0,0,0,0,38
516.63822019185,0,200,99,0,0,1,0,261,100,0,0,0,0,0,0,0,0,0,0,39
522.999428288452,0,200,99,0,0,1,0,260,100,1,0,0,0,0,0,0,0,0,0,39
524.887863010057,0,200,99,0,0,1,0,260,100,0,0,0,0,1,0,0,0,0,0,39
526.867706786415,0,200,99,0,0,1,0,260,100,0,0,0,0,0,0,0,0,1,0,39
527.687890867114,0,200,99,0,0,1,0,260,100,0,0,0,0,0,0,0,0,0,0,40
541.735587409113,0,200,99,0,0,1,0,259,100,1,0,0,0,0,0,0,0,0,0,40
542.889609983954,0,200,99,0,0,1,0,259,100,0,0,0,0,1,0,0,0,0,0,40
544.756253256189,0,200,99,0,0,1,0,259,100,0,0,0,0,0,0,0,0,1,0,40
545.635764433837,0,200,99,0,0,1,0,259,100,0,0,0,0,0,0,0,0,0,0,41
575.804103381943,0,200,99,0,0,1,0,258,100,1,0,0,0,0,0,0,0,0,0,41
578.745588672305,0,200,99,0,0,1,0,257,100,1,0,0,0,0,0,1,0,0,0,41
579.732345775967,0,200,99,0,0,1,0,257,100,0,0,0,0,0,0,1,0,1,0,41
580.754853599686,0,200,99,0,0,1,0,257,100,0,0,0,0,0,0,0,0,1,0,42
581.578367352241,0,200,99,0,0,1,0,257,100,0,0,0,0,0,0,0,0,0,0,43
585.429394908709,0,200,99,0,0,1,0,256,100,0,0,0,0,1,0,0,0,0,0,43
589.197880922191,0,200,99,0,0,1,0,256,100,0,0,0,0,0,0,1,0,0,0,43
592.162416606597,0,200,99,0,0,1,0,256,100,0,0,0,0,0,0,0,0,1,0,43
