Time,P_x1,P_x2,P_x3,P_x4,P_x5,P_x6,P_x7,P_x8,P_x9,P_x10,P_x11,P_x12,P_x13,P_x14,P_x15,P_x16,P_x17,P_x18,P_x19,P_x20
0,0,200,99,0,0,1,0,270,100,1,0,0,0,0,0,0,0,0,0,29
0.824918180812841,0,200,99,0,0,1,0,270,100,0,0,0,0,0,0,1,0,0,0,29
1.33018058103275,0,200,99,0,0,1,0,270,100,0,0,0,0,0,0,0,0,1,0,29
2.16985230450326,0,200,99,0,0,1,0,270,100,0,0,0,0,0,0,0,0,0,0,30
5.9302960039077,0,200,99,0,0,1,0,269,100,0,0,1,0,0,0,0,0,0,0,30
8.62227376864239,0,200,99,0,0,1,0,269,100,0,0,0,0,1,0,0,0,0,0,30
9.25295451011906,0,200,99,0,0,1,0,269,100,0,0,0,0,0,0,1,0,0,0,30
11.6945906561345,0,200,99,0,0,1,0,269,100,0,0,0,0,0,0,0,0,0,0,31
26.8068615222509,0,200,99,0,0,1,0,268,100,0,0,1,0,0,0,0,0,0,0,31
28.9116252889107,0,200,99,0,0,1,0,268,100,0,0,0,0,0,0,0,0,1,0,31
29.5983591689993,0,200,99,0,0,1,0,268,100,0,0,0,0,0,0,0,0,0,0,32
45.5304039501543,0,200,99,0,0,1,0,267,100,0,0,0,0,1,0,0,0,0,0,32
46.601113023796,0,200,99,0,0,1,0,267,100,0,0,0,0,0,0,1,0,0,0,32
47.0375492242514,0,200,99,0,0,1,0,267,100,0,0,0,0,0,0,0,0,1,0,32
48.3598941995802,0,200,99,0,0,1,0,267,100,0,0,0,0,0,0,0,0,0,0,33
99.8964030607457,0,200,99,0,0,1,0,266,100,1,0,0,0,0,0,0,0,0,0,33
102.594797508894,0,200,99,0,0,1,0,265,100,1,0,1,0,0,0,0,0,0,0,33
103.778031510274,0,200,99,0,0,1,0,265,100,0,0,0,0,2,0,0,0,0,0,33
104.812872904435,0,200,99,0,0,1,0,265,100,0,0,0,0,1,0,0,0,1,0,33
105.108057722473,0,200,99,0,0,1,0,265,100,0,0,0,0,1,0,0,0,0,0,34
108.630432229897,0,200,99,0,0,1,0,265,100,0,0,0,0,0,0,0,0,1,0,34
110.495392678766,0,200,99,0,0,1,0,265,100,0,0,0,0,0,0,0,0,0,0,35
129.764473319184,0,200,99,0,0,1,0,264,100,1,0,0,0,0,0,0,0,0,0,35
130.128471789161,0,200,99,0,0,1,0,264,100,0,0,1,0,0,0,0,0,0,0,35
131.148423997687,0,200,99,0,0,1,0,264,100,0,0,0,0,1,0,0,0,0,0,35
132.437536517313,0,200,99,0,0,1,0,264,100,0,0,0,0,0,0,1,0,0,0,35
133.864097050305,0,200,99,0,0,1,0,263,100,1,0,0,0,0,0,0,0,1,0,35
134.686601129449,0,200,99,0,0,1,0,263,100,0,0,1,0,0,0,0,0,0,0,36
135.881663660823,0,200,99,0,0,1,0,263,100,0,0,0,0,0,0,0,0,1,0,36
136.358096938356,0,200,99,0,0,1,0,263,100,0,0,0,0,0,0,0,0,0,0,37
161.133857003622,0,200,99,0,0,1,0,262,100,1,0,0,0,0,0,0,0,0,0,37
162.94875737233,0,200,99,0,0,1,0,262,100,0,0,0,0,0,0,0,0,0,0,38
207.539792214713,0,200,99,0,0,1,0,261,100,1,0,0,0,0,0,0,0,0,0,38
211.954651281596,0,200,99,0,0,1,0,261,100,0,0,0,0,1,0,0,0,0,0,38
212.237746598345,0,200,99,0,0,1,0,261,100,0,0,0,0,0,0,1,0,0,0,38
215.242339064212,0,200,99,0,0,1,0,261,100,0,0,0,0,0,0,0,0,0,0,39
228.167048841708,0,200,99,0,0,1,0,260,100,0,0,1,0,0,0,0,0,0,0,39
229.865714860836,0,200,99,0,0,1,0,260,100,0,0,0,0,0,0,1,0,0,0,39
231.849680830726,0,200,99,0,0,1,0,260,100,0,0,0,0,0,0,0,0,0,0,40
264.91447422545,0,200,99,0,0,1,0,259,100,1,0,0,0,0,0,0,0,0,0,40
265.009670283943,0,200,99,0,0,1,0,259,100,0,0,1,0,0,0,0,0,0,0,40
266.586076071422,0,200,99,0,0,1,0,259,100,0,0,0,0,1,0,0,0,0,0,40
267.9325104399,0,200,99,0,0,1,0,259,100,0,0,0,0,0,0,1,0,0,0,40
269.866432646637,0,200,99,0,0,1,0,258,100,1,0,0,0,0,0,0,0,1,0,40
270.960021422134,0,200,99,0,0,1,0,258,100,0,0,1,0,0,0,0,0,1,0,40
271.909130812737,0,200,99,0,0,1,0,257,100,1,0,1,0,0,0,0,0,0,0,41
272.351811093553,0,200,99,0,0,1,0,257,100,0,0,2,0,0,0,0,0,0,0,41
273.525063663748,0,200,99,0,0,1,0,257,100,0,0,0,0,2,0,0,0,0,0,41
274.871446591728,0,200,99,0,0,1,0,257,100,0,0,0,0,1,0,0,0,0,0,42
275.407145214766,0,200,99,0,0,1,0,257,100,0,0,0,0,0,0,1,0,0,0,42
276.548524538505,0,200,99,0,0,1,0,257,100,0,0,0,0,0,0,0,0,0,0,43
351.500227844798,0,200,99,0,0,1,0,256,100,1,0,0,0,0,0,0,0,0,0,43
