Time,P_x1,P_x2,P_x3,P_x4,P_x5,P_x6,P_x7,P_x8,P_x9,P_x10,P_x11,P_x12,P_x13,P_x14,P_x15,P_x16,P_x17,P_x18,P_x19,P_x20
0,0,200,99,0,0,1,0,260,100,0,0,0,0,1,0,0,0,1,0,38
0.705392272569444,0,200,99,0,0,1,0,260,100,0,0,0,0,0,0,1,0,0,0,39
1.33700526279311,0,200,99,0,0,1,0,260,100,0,0,0,0,0,0,0,0,1,0,39
3.09972833651652,0,200,99,0,0,1,0,260,100,0,0,0,0,0,0,0,0,0,0,40
13.9651994325722,0,200,99,0,0,1,0,259,100,1,0,0,0,0,0,0,0,0,0,40
14.5918563941234,0,200,99,0,0,1,0,259,100,0,0,0,0,1,0,0,0,0,0,40
17.8393607963958,0,200,99,0,0,1,0,259,100,0,0,0,0,0,0,1,0,0,0,40
18.4648324668207,0,200,99,0,0,1,0,259,100,0,0,0,0,0,0,0,0,1,0,40
20.6404959059912,0,200,99,0,0,1,0,259,100,0,0,0,0,0,0,0,0,0,0,41
21.3926053851408,0,200,99,0,0,1,0,258,100,0,0,1,0,0,0,0,0,0,0,41
23.8424735646387,0,200,99,0,0,1,0,258,100,0,0,0,0,1,0,0,0,0,0,41
25.8573830527659,0,200,99,0,0,1,0,258,100,0,0,0,0,0,0,0,0,1,0,41
27.2080088270366,0,200,99,0,0,1,0,258,100,0,0,0,0,0,0,0,0,0,0,42
68.6462266380446,0,200,99,0,0,1,0,257,100,1,0,0,0,0,0,0,0,0,0,42
69.0858447936063,0,200,99,0,0,1,0,257,100,0,0,1,0,0,0,0,0,0,0,42
72.7021802745308,0,200,99,0,0,1,0,257,100,0,0,0,0,1,0,0,0,0,0,42
73.5444552829715,0,200,99,0,0,1,0,257,100,0,0,0,0,0,0,1,0,0,0,42
74.3570681187918,0,200,99,0,0,1,0,257,100,0,0,0,0,0,0,0,0,1,0,42
75.5630974236054,0,200,99,0,0,1,0,257,100,0,0,0,0,0,0,0,0,0,0,43
102.863581661359,0,200,99,0,0,1,0,256,100,1,0,0,0,0,0,0,0,0,0,43
