Time,P_x1,P_x2,P_x3,P_x4,P_x5,P_x6,P_x7,P_x8,P_x9,P_x10,P_x11,P_x12,P_x13,P_x14,P_x15,P_x16,P_x17,P_x18,P_x19,P_x20
0,0,200,99,0,0,1,0,258,100,1,0,0,0,0,0,0,0,0,0,41
0.165156086949534,0,200,99,0,0,1,0,258,100,0,0,1,0,0,0,0,0,0,0,41
2.5148962452314,0,200,99,0,0,1,0,258,100,0,0,0,0,1,0,0,0,0,0,41
5.00006659896088,0,200,99,0,0,1,0,258,100,0,0,0,0,0,0,1,0,0,0,41
6.3765386827629,0,200,99,0,0,1,0,258,100,0,0,0,0,0,0,0,0,1,0,41
9.78506352746085,0,200,99,0,0,1,0,257,100,0,0,1,0,0,0,0,0,1,0,41
10.9557427018016,0,200,99,0,0,1,0,257,100,0,0,0,0,0,0,1,0,1,0,41
11.6886222582746,0,200,99,0,0,1,0,257,100,0,0,0,0,0,0,0,0,1,0,42
14.2856061744857,0,200,99,0,0,1,0,257,100,0,0,0,0,0,0,0,0,0,0,43
20.6752846936742,0,200,99,0,0,1,0,256,100,1,0,0,0,0,0,0,0,0,0,43
21.3390738404731,0,200,99,0,0,1,0,256,100,0,0,1,0,0,0,0,0,0,0,43
23.3842717663488,0,200,99,0,0,1,0,256,100,0,0,0,0,1,0,0,0,0,0,43
25.1149335161193,0,200,99,0,0,1,0,256,100,0,0,0,0,0,0,1,0,0,0,43
26.2450519145773,0,200,99,0,0,1,0,256,100,0,0,0,0,0,0,0,0,0,0,44
37.7099812760068,0,200,99,0,0,1,0,255,100,1,0,0,0,0,0,0,0,0,0,44
39.6943934855357,0,200,99,0,0,1,0,255,100,0,0,1,0,0,0,0,0,0,0,44
40.133426892055,0,200,99,0,0,1,0,255,100,0,0,0,0,1,0,0,0,0,0,44
