Time,P_x1,P_x2,P_x3,P_x4,P_x5,P_x6,P_x7,P_x8,P_x9,P_x10,P_x11,P_x12,P_x13,P_x14,P_x15,P_x16,P_x17,P_x18,P_x19,P_x20
0,0,200,99,0,0,1,0,282,100,1,0,0,0,0,0,0,0,0,0,17
0.6499420898498,0,200,99,0,0,1,0,282,100,0,0,1,0,0,0,0,0,0,0,17
1.5048296368535,0,200,99,0,0,1,0,282,100,0,0,0,0,1,0,0,0,0,0,17
2.3838577605375,0,200,99,0,0,1,0,282,100,0,0,0,0,0,0,1,0,0,0,17
4.45966845021016,0,200,99,0,0,1,0,281,100,1,0,0,0,0,0,0,0,1,0,17
6.3238765073164,0,200,99,0,0,1,0,281,100,1,0,0,0,0,0,0,0,0,0,18
7.125135161439,0,200,99,0,0,1,0,281,100,0,0,1,0,0,0,0,0,0,0,18
8.73570788109385,0,200,99,0,0,1,0,281,100,0,0,0,0,0,0,0,0,1,0,18
10.2895069510781,0,200,99,0,0,1,0,281,100,0,0,0,0,0,0,0,0,0,0,19
24.9131876648777,0,200,99,0,0,1,0,280,100,0,0,0,0,0,0,1,0,0,0,19
25.4929104202606,0,200,99,0,0,1,0,280,100,0,0,0,0,0,0,0,0,0,0,20
37.5927458325191,0,200,99,0,0,1,0,279,100,1,0,0,0,0,0,0,0,0,0,20
39.6631647564906,0,200,99,0,0,1,0,279,100,0,0,1,0,0,0,0,0,0,0,20
41.5899612349633,0,200,99,0,0,1,0,279,100,0,0,0,0,1,0,0,0,0,0,20
43.051698847441,0,200,99,0,0,1,0,279,100,0,0,0,0,0,0,1,0,0,0,20
44.6678078824363,0,200,99,0,0,1,0,279,100,0,0,0,0,0,0,0,0,1,0,20
47.4964313935548,0,200,99,0,0,1,0,279,100,0,0,0,0,0,0,0,0,0,0,21
55.723024022301,0,200,99,0,0,1,0,278,100,1,0,0,0,0,0,0,0,0,0,21
57.4916100054151,0,200,99,0,0,1,0,278,100,0,0,0,0,1,0,0,0,0,0,21
58.306265202815,0,200,99,0,0,1,0,278,100,0,0,0,0,0,0,0,0,1,0,21
59.1339761774541,0,200,99,0,0,1,0,278,100,0,0,0,0,0,0,0,0,0,0,22
64.8141809105557,0,200,99,0,0,1,0,277,100,1,0,0,0,0,0,0,0,0,0,22
65.2564950912692,0,200,99,0,0,1,0,277,100,0,0,1,0,0,0,0,0,0,0,22
66.7629320826468,0,200,99,0,0,1,0,277,100,0,0,0,0,1,0,0,0,0,0,22
67.6523038719233,0,200,99,0,0,1,0,277,100,0,0,0,0,0,0,1,0,0,0,22
68.7706610989213,0,200,99,0,0,1,0,276,100,1,0,0,0,0,0,0,0,0,0,23
71.0990725768021,0,200,99,0,0,1,0,276,100,0,0,1,0,0,0,0,0,0,0,23
72.5197052687183,0,200,99,0,0,1,0,276,100,0,0,0,0,1,0,0,0,0,0,23
75.9094033928208,0,200,99,0,0,1,0,276,100,0,0,0,0,0,0,0,0,1,0,23
77.8784107460075,0,200,99,0,0,1,0,276,100,0,0,0,0,0,0,0,0,0,0,24
88.1922949253291,0,200,99,0,0,1,0,275,100,1,0,0,0,0,0,0,0,0,0,24
90.9022923299411,0,200,99,0,0,1,0,275,100,0,0,0,0,0,0,0,0,1,0,24
91.0566128629204,0,200,99,0,0,1,0,275,100,0,0,0,0,0,0,0,0,0,0,25
114.229898446933,0,200,99,0,0,1,0,274,100,1,0,0,0,0,0,0,0,0,0,25
115.751922011492,0,200,99,0,0,1,0,274,100,0,0,0,0,1,0,0,0,0,0,25
119.812585677578,0,200,99,0,0,1,0,274,100,0,0,0,0,0,0,1,0,0,0,25
121.39465047819,0,200,99,0,0,1,0,274,100,0,0,0,0,0,0,0,0,0,0,26
166.6111310535,0,200,99,0,0,1,0,273,100,0,0,1,0,0,0,0,0,0,0,26
167.908330997768,0,200,99,0,0,1,0,272,100,1,0,1,0,0,0,0,0,0,0,26
168.997634428303,0,200,99,0,0,1,0,272,100,0,0,1,0,0,0,0,0,0,0,27
169.530417336217,0,200,99,0,0,1,0,272,100,0,0,0,0,1,0,0,0,0,0,27
174.980505722736,0,200,99,0,0,1,0,272,100,0,0,0,0,0,0,1,0,0,0,27
175.551725533935,0,200,99,0,0,1,0,272,100,0,0,0,0,0,0,0,0,1,0,27
176.438235684812,0,200,99,0,0,1,0,272,100,0,0,0,0,0,0,0,0,0,0,28
194.95970340738,0,200,99,0,0,1,0,271,100,1,0,0,0,0,0,0,0,0,0,28
195.74873566469,0,200,99,0,0,1,0,271,100,0,0,0,0,1,0,0,0,0,0,28
196.659080946955,0,200,99,0,0,1,0,271,100,0,0,0,0,0,0,1,0,0,0,28
197.572284986609,0,200,99,0,0,1,0,271,100,0,0,0,0,0,0,0,0,1,0,28
198.078442127402,0,200,99,0,0,1,0,271,100,0,0,0,0,0,0,0,0,0,0,29
250.981178428887,0,200,99,0,0,1,0,270,100,0,0,0,0,0,0,1,0,0,0,29
253.832242707766,0,200,99,0,0,1,0,270,100,0,0,0,0,0,0,0,0,1,0,29
257.25521967595,0,200,99,0,0,1,0,270,100,0,0,0,0,0,0,0,0,0,0,30
264.602981582619,0,200,99,0,0,1,0,269,100,0,0,1,0,0,0,0,0,0,0,30
265.783767549067,0,200,99,0,0,1,0,269,100,0,0,0,0,1,0,0,0,0,0,30
266.952568909256,0,200,99,0,0,1,0,269,100,0,0,0,0,0,0,0,0,1,0,30
267.142372943388,0,200,99,0,0,1,0,269,100,0,0,0,0,0,0,0,0,0,0,31
295.658989845671,0,200,99,0,0,1,0,268,100,0,0,1,0,0,0,0,0,0,0,31
296.575809088846,0,200,99,0,0,1,0,268,100,0,0,0,0,0,0,1,0,0,0,31
298.962527109651,0,200,99,0,0,1,0,268,100,0,0,0,0,0,0,0,0,0,0,32
304.588855441268,0,200,99,0,0,1,0,267,100,1,0,0,0,0,0,0,0,0,0,32
306.65677166304,0,200,99,0,0,1,0,267,100,0,0,0,0,1,0,0,0,0,0,32
307.723284020519,0,200,99,0,0,1,0,267,100,0,0,0,0,0,0,1,0,0,0,32
308.719001230225,0,200,99,0,0,1,0,267,100,0,0,0,0,0,0,0,0,0,0,33
319.272847239667,0,200,99,0,0,1,0,266,100,0,0,1,0,0,0,0,0,0,0,33
320.715327569304,0,200,99,0,0,1,0,266,100,0,0,0,0,1,0,0,0,0,0,33
321.791445594449,0,200,99,0,0,1,0,266,100,0,0,0,0,0,0,0,0,1,0,33
322.087963062797,0,200,99,0,0,1,0,266,100,0,0,0,0,0,0,0,0,0,0,34
365.723348987619,0,200,99,0,0,1,0,265,100,0,0,1,0,0,0,0,0,0,0,34
366.76455246687,0,200,99,0,0,1,0,265,100,0,0,0,0,0,0,0,0,0,0,35
377.451605671298,0,200,99,0,0,1,0,264,100,0,0,0,0,1,0,0,0,0,0,35
378.633583164321,0,200,99,0,0,1,0,264,100,0,0,0,0,0,0,1,0,0,0,35
379.246966630162,0,200,99,0,0,1,0,264,100,0,0,0,0,0,0,0,0,1,0,35
380.163716289729,0,200,99,0,0,1,0,264,100,0,0,0,0,0,0,0,0,0,0,36
391.900436617262,0,200,99,0,0,1,0,263,100,1,0,0,0,0,0,0,0,0,0,36
392.800970204061,0,200,99,0,0,1,0,262,100,2,0,0,0,0,0,0,0,0,0,36
394.900462508999,0,200,99,0,0,1,0,262,100,0,0,2,0,0,0,0,0,0,0,36
395.923456647421,0,200,99,0,0,1,0,262,100,0,0,1,0,0,0,0,0,1,0,36
396.517419822179,0,200,99,0,0,1,0,262,100,0,0,0,0,1,0,0,0,1,0,36
397.876516353064,0,200,99,0,0,1,0,262,100,0,0,0,0,0,0,1,0,1,0,36
398.235842366882,0,200,99,0,0,1,0,262,100,0,0,0,0,0,0,1,0,0,0,37
400.5785560971,0,200,99,0,0,1,0,262,100,0,0,0,0,0,0,0,0,1,0,37
403.359436390218,0,200,99,0,0,1,0,262,100,0,0,0,0,0,0,0,0,0,0,38
432.778254226075,0,200,99,0,0,1,0,261,100,1,0,0,0,0,0,0,0,0,0,38
433.107181204884,0,200,99,0,0,1,0,261,100,0,0,0,0,1,0,0,0,0,0,38
435.651108912723,0,200,99,0,0,1,0,261,100,0,0,0,0,0,0,0,0,0,0,39
500.961918579807,0,200,99,0,0,1,0,260,100,0,0,0,0,1,0,0,0,0,0,39
501.041257044037,0,200,99,0,0,1,0,260,100,0,0,0,0,0,0,1,0,0,0,39
503.682923097652,0,200,99,0,0,1,0,260,100,0,0,0,0,0,0,0,0,0,0,40
517.343800950719,0,200,99,0,0,1,0,259,100,1,0,0,0,0,0,0,0,0,0,40
