Time,P_x1,P_x2,P_x3,P_x4,P_x5,P_x6,P_x7,P_x8,P_x9,P_x10,P_x11,P_x12,P_x13,P_x14,P_x15,P_x16,P_x17,P_x18,P_x19,P_x20
0,0,200,99,0,0,1,0,265,100,0,0,1,0,0,0,0,0,0,0,34
1.82227818746233,0,200,99,0,0,1,0,265,100,0,0,0,0,0,0,1,0,0,0,34
2.98471080867564,0,200,99,0,0,1,0,265,100,0,0,0,0,0,0,0,0,0,0,35
12.5850685838506,0,200,99,0,0,1,0,264,100,1,0,0,0,0,0,0,0,0,0,35
13.0625969498253,0,200,99,0,0,1,0,264,100,0,0,1,0,0,0,0,0,0,0,35
14.5988444314568,0,200,99,0,0,1,0,264,100,0,0,0,0,1,0,0,0,0,0,35
15.2963544566048,0,200,99,0,0,1,0,264,100,0,0,0,0,0,0,0,0,1,0,35
16.3119519779288,0,200,99,0,0,1,0,264,100,0,0,0,0,0,0,0,0,0,0,36
26.7213526950535,0,200,99,0,0,1,0,263,100,1,0,0,0,0,0,0,0,0,0,36
27.1640728976934,0,200,99,0,0,1,0,263,100,0,0,0,0,1,0,0,0,0,0,36
28.5182146953378,0,200,99,0,0,1,0,263,100,0,0,0,0,0,0,1,0,0,0,36
29.1920751898797,0,200,99,0,0,1,0,263,100,0,0,0,0,0,0,0,0,0,0,37
56.4600903485547,0,200,99,0,0,1,0,262,100,0,0,1,0,0,0,0,0,0,0,37
57.7817046722568,0,200,99,0,0,1,0,262,100,0,0,0,0,0,0,1,0,0,0,37
59.3771519106225,0,200,99,0,0,1,0,262,100,0,0,0,0,0,0,0,0,0,0,38
60.1071814620328,0,200,99,0,0,1,0,261,100,1,0,0,0,0,0,0,0,0,0,38
61.6986723533442,0,200,99,0,0,1,0,261,100,0,0,0,0,1,0,0,0,0,0,38
62.6973976463058,0,200,99,0,0,1,0,261,100,0,0,0,0,0,0,1,0,0,0,38
63.5598140660666,0,200,99,0,0,1,0,261,100,0,0,0,0,0,0,0,0,0,0,39
80.8255800096276,0,200,99,0,0,1,0,260,100,0,0,1,0,0,0,0,0,0,0,39
81.4553354386943,0,200,99,0,0,1,0,260,100,0,0,0,0,1,0,0,0,0,0,39
84.6228539121495,0,200,99,0,0,1,0,260,100,0,0,0,0,0,0,1,0,0,0,39
85.1032344187086,0,200,99,0,0,1,0,260,100,0,0,0,0,0,0,0,0,1,0,39
86.0714575287165,0,200,99,0,0,1,0,260,100,0,0,0,0,0,0,0,0,0,0,40
102.847181462032,0,200,99,0,0,1,0,259,100,0,0,1,0,0,0,0,0,0,0,40
103.778758051752,0,200,99,0,0,1,0,259,100,0,0,0,0,0,0,0,0,0,0,41
105.690509575103,0,200,99,0,0,1,0,258,100,1,0,0,0,0,0,0,0,0,0,41
106.746339414961,0,200,99,0,0,1,0,258,100,0,0,1,0,0,0,0,0,0,0,41
109.894307572176,0,200,99,0,0,1,0,257,100,1,0,0,0,1,0,0,0,0,0,41
110.17944731064,0,200,99,0,0,1,0,257,100,0,0,0,0,2,0,0,0,0,0,41
111.954250588032,0,200,99,0,0,1,0,257,100,0,0,0,0,1,0,1,0,0,0,41
112.587308481293,0,200,99,0,0,1,0,257,100,0,0,0,0,1,0,0,0,1,0,41
113.488564649847,0,200,99,0,0,1,0,257,100,0,0,0,0,0,0,0,0,0,0,43
120.072748760222,0,200,99,0,0,1,0,256,100,1,0,0,0,0,0,0,0,0,0,43
121.6432996909,0,200,99,0,0,1,0,256,100,0,0,1,0,0,0,0,0,0,0,43
122.494539049862,0,200,99,0,0,1,0,256,100,0,0,0,0,0,0,1,0,0,0,43
124.800299016133,0,200,99,0,0,1,0,256,100,0,0,0,0,0,0,0,0,1,0,43
126.130104329432,0,200,99,0,0,1,0,256,100,0,0,0,0,0,0,0,0,0,0,44
138.121487285187,0,200,99,0,0,1,0,255,100,1,0,0,0,0,0,0,0,0,0,44
140.187133596282,0,200,99,0,0,1,0,255,100,0,0,1,0,0,0,0,0,0,0,44
