Time,P_x1,P_x2,P_x3,P_x4,P_x5,P_x6,P_x7,P_x8,P_x9,P_x10,P_x11,P_x12,P_x13,P_x14,P_x15,P_x16,P_x17,P_x18,P_x19,P_x20
0,0,200,99,0,0,1,0,257,100,1,0,0,0,0,0,0,0,0,0,42
0.992338321405898,0,200,99,0,0,1,0,257,100,0,0,0,0,0,0,1,0,0,0,42
1.68300433034747,0,200,99,0,0,1,0,257,100,0,0,0,0,0,0,0,0,1,0,42
2.13731827517848,0,200,99,0,0,1,0,257,100,0,0,0,0,0,0,0,0,0,0,43
20.4441353240575,0,200,99,0,0,1,0,256,100,1,0,0,0,0,0,0,0,0,0,43
