Time,P_x1,P_x2,P_x3,P_x4,P_x5,P_x6,P_x7,P_x8,P_x9,P_x10,P_x11,P_x12,P_x13,P_x14,P_x15,P_x16,P_x17,P_x18,P_x19,P_x20
0,0,200,99,0,0,1,0,284,100,0,0,1,0,0,0,0,0,0,0,15
3.16329294004657,0,200,99,0,0,1,0,284,100,0,0,0,0,0,0,1,0,0,0,15
4.65259007939335,0,200,99,0,0,1,0,284,100,0,0,0,0,0,0,0,0,1,0,15
6.71594961654902,0,200,99,0,0,1,0,284,100,0,0,0,0,0,0,0,0,0,0,16
17.4402012119362,0,200,99,0,0,1,0,283,100,0,0,0,0,1,0,0,0,0,0,16
19.9156955195418,0,200,99,0,0,1,0,283,100,0,0,0,0,0,0,0,0,1,0,16
20.0713135556454,0,200,99,0,0,1,0,283,100,0,0,0,0,0,0,0,0,0,0,17
35.2245876271008,0,200,99,0,0,1,0,282,100,1,0,0,0,0,0,0,0,0,0,17
36.9978489351644,0,200,99,0,0,1,0,282,100,0,0,1,0,0,0,0,0,0,0,17
37.8396289715163,0,200,99,0,0,1,0,282,100,0,0,0,0,1,0,0,0,0,0,17
39.885467919929,0,200,99,0,0,1,0,282,100,0,0,0,0,0,0,1,0,0,0,17
40.9235424601826,0,200,99,0,0,1,0,282,100,0,0,0,0,0,0,0,0,0,0,18
51.6539859930609,0,200,99,0,0,1,0,281,100,1,0,0,0,0,0,0,0,0,0,18
54.8011070672112,0,200,99,0,0,1,0,281,100,0,0,0,0,0,0,1,0,0,0,18
55.8172561426383,0,200,99,0,0,1,0,281,100,0,0,0,0,0,0,0,0,0,0,19
87.8585979760492,0,200,99,0,0,1,0,280,100,0,0,1,0,0,0,0,0,0,0,19
88.5253104621847,0,200,99,0,0,1,0,280,100,0,0,0,0,0,0,1,0,0,0,19
89.7863113620154,0,200,99,0,0,1,0,280,100,0,0,0,0,0,0,0,0,0,0,20
96.7489387646349,0,200,99,0,0,1,0,279,100,0,0,1,0,0,0,0,0,0,0,20
97.4999251906108,0,200,99,0,0,1,0,279,100,0,0,0,0,1,0,0,0,0,0,20
99.4831130959106,0,200,99,0,0,1,0,279,100,0,0,0,0,0,0,1,0,0,0,20
100.71917682031,0,200,99,0,0,1,0,279,100,0,0,0,0,0,0,0,0,1,0,20
103.058592777004,0,200,99,0,0,1,0,279,100,0,0,0,0,0,0,0,0,0,0,21
108.948170773529,0,200,99,0,0,1,0,277,100,1,0,1,0,0,0,0,0,0,0,21
109.410025633671,0,200,99,0,0,1,0,277,100,0,0,1,0,0,0,0,0,1,0,21
110.590345034195,0,200,99,0,0,1,0,276,100,1,0,1,0,0,0,0,0,0,0,22
111.538892300934,0,200,99,0,0,1,0,276,100,0,0,2,0,0,0,0,0,0,0,22
112.672479715508,0,200,99,0,0,1,0,276,100,0,0,1,0,1,0,0,0,0,0,22
113.954526110252,0,200,99,0,0,1,0,276,100,0,0,1,0,0,0,1,0,0,0,22
114.458742671197,0,200,99,0,0,1,0,276,100,0,0,1,0,0,0,0,0,0,0,23
118.745938875764,0,200,99,0,0,1,0,276,100,0,0,0,0,0,0,0,0,0,0,24
136.952175754212,0,200,99,0,0,1,0,275,100,0,0,0,0,1,0,0,0,0,0,24
137.271225167532,0,200,99,0,0,1,0,275,100,0,0,0,0,0,0,1,0,0,0,24
138.523396974676,0,200,99,0,0,1,0,274,100,1,0,0,0,0,0,0,0,1,0,24
139.118954277715,0,200,99,0,0,1,0,274,100,0,0,1,0,0,0,0,0,0,0,25
140.898262980062,0,200,99,0,0,1,0,274,100,0,0,0,0,1,0,0,0,0,0,25
143.881876305315,0,200,99,0,0,1,0,274,100,0,0,0,0,0,0,1,0,0,0,25
144.837813882407,0,200,99,0,0,1,0,274,100,0,0,0,0,0,0,0,0,1,0,25
145.216232666378,0,200,99,0,0,1,0,274,100,0,0,0,0,0,0,0,0,0,0,26
154.059951925536,0,200,99,0,0,1,0,273,100,1,0,0,0,0,0,0,0,0,0,26
155.312697786434,0,200,99,0,0,1,0,273,100,0,0,1,0,0,0,0,0,0,0,26
156.489524657132,0,200,99,0,0,1,0,273,100,0,0,0,0,1,0,0,0,0,0,26
157.987321929479,0,200,99,0,0,1,0,273,100,0,0,0,0,0,0,0,0,0,0,27
193.929818616562,0,200,99,0,0,1,0,272,100,0,0,0,0,1,0,0,0,0,0,27
195.76912747069,0,200,99,0,0,1,0,272,100,0,0,0,0,0,0,1,0,0,0,27
196.739840016084,0,200,99,0,0,1,0,272,100,0,0,0,0,0,0,0,0,0,0,28
197.831515213087,0,200,99,0,0,1,0,271,100,0,0,0,0,1,0,0,0,0,0,28
198.652555460702,0,200,99,0,0,1,0,270,100,1,0,0,0,0,0,0,0,1,0,28
200.954234114601,0,200,99,0,0,1,0,270,100,1,0,0,0,0,0,0,0,0,0,29
202.206608734751,0,200,99,0,0,1,0,270,100,0,0,0,0,1,0,0,0,0,0,29
203.765560770771,0,200,99,0,0,1,0,270,100,0,0,0,0,0,0,0,0,1,0,29
206.124483139972,0,200,99,0,0,1,0,270,100,0,0,0,0,0,0,0,0,0,0,30
247.823061373816,0,200,99,0,0,1,0,269,100,1,0,0,0,0,0,0,0,0,0,30
248.393720390427,0,200,99,0,0,1,0,269,100,0,0,1,0,0,0,0,0,0,0,30
249.233891961146,0,200,99,0,0,1,0,269,100,0,0,0,0,1,0,0,0,0,0,30
250.852806704757,0,200,99,0,0,1,0,269,100,0,0,0,0,0,0,1,0,0,0,30
251.216115276992,0,200,99,0,0,1,0,269,100,0,0,0,0,0,0,0,0,1,0,30
252.923501611126,0,200,99,0,0,1,0,269,100,0,0,0,0,0,0,0,0,0,0,31
287.569480663997,0,200,99,0,0,1,0,268,100,1,0,0,0,0,0,0,0,0,0,31
288.4875931979,0,200,99,0,0,1,0,268,100,0,0,1,0,0,0,0,0,0,0,31
289.995110222194,0,200,99,0,0,1,0,268,100,0,0,0,0,0,0,0,0,1,0,31
290.191840274699,0,200,99,0,0,1,0,268,100,0,0,0,0,0,0,0,0,0,0,32
323.731927690402,0,200,99,0,0,1,0,267,100,0,0,1,0,0,0,0,0,0,0,32
327.581514878727,0,200,99,0,0,1,0,267,100,0,0,0,0,1,0,0,0,0,0,32
328.398345258627,0,200,99,0,0,1,0,267,100,0,0,0,0,0,0,1,0,0,0,32
329.146861976349,0,200,99,0,0,1,0,267,100,0,0,0,0,0,0,0,0,0,0,33
375.432756224742,0,200,99,0,0,1,0,266,100,1,0,0,0,0,0,0,0,0,0,33
376.274766411602,0,200,99,0,0,1,0,266,100,0,0,1,0,0,0,0,0,0,0,33
378.31119159352,0,200,99,0,0,1,0,266,100,0,0,0,0,1,0,0,0,0,0,33
379.465358714796,0,200,99,0,0,1,0,266,100,0,0,0,0,0,0,1,0,0,0,33
380.327095812101,0,200,99,0,0,1,0,266,100,0,0,0,0,0,0,0,0,1,0,33
381.588879493957,0,200,99,0,0,1,0,266,100,0,0,0,0,0,0,0,0,0,0,34
394.743033747447,0,200,99,0,0,1,0,265,100,1,0,0,0,0,0,0,0,0,0,34
397.099255594648,0,200,99,0,0,1,0,265,100,0,0,1,0,0,0,0,0,0,0,34
398.541486429163,0,200,99,0,0,1,0,265,100,0,0,0,0,0,0,1,0,0,0,34
399.705858848204,0,200,99,0,0,1,0,265,100,0,0,0,0,0,0,0,0,0,0,35
408.873821614717,0,200,99,0,0,1,0,264,100,1,0,0,0,0,0,0,0,0,0,35
410.56234831536,0,200,99,0,0,1,0,264,100,0,0,0,0,1,0,0,0,0,0,35
411.935129166399,0,200,99,0,0,1,0,264,100,0,0,0,0,0,0,1,0,0,0,35
412.580276606622,0,200,99,0,0,1,0,264,100,0,0,0,0,0,0,0,0,0,0,36
430.535158843107,0,200,99,0,0,1,0,263,100,0,0,1,0,0,0,0,0,0,0,36
431.548616848597,0,200,99,0,0,1,0,263,100,0,0,0,0,0,0,1,0,0,0,36
432.287983725082,0,200,99,0,0,1,0,263,100,0,0,0,0,0,0,0,0,1,0,36
435.258526288038,0,200,99,0,0,1,0,263,100,0,0,0,0,0,0,0,0,0,0,37
451.929478303137,0,200,99,0,0,1,0,262,100,1,0,0,0,0,0,0,0,0,0,37
452.762701217641,0,200,99,0,0,1,0,262,100,0,0,1,0,0,0,0,0,0,0,37
453.262376421131,0,200,99,0,0,1,0,262,100,0,0,0,0,1,0,0,0,0,0,37
456.821521847423,0,200,99,0,0,1,0,262,100,0,0,0,0,0,0,1,0,0,0,37
458.949522810089,0,200,99,0,0,1,0,262,100,0,0,0,0,0,0,0,0,0,0,38
473.576901438619,0,200,99,0,0,1,0,260,100,2,0,0,0,0,0,0,0,0,0,38
474.471681887262,0,200,99,0,0,1,0,260,100,1,0,0,0,0,0,1,0,0,0,38
475.910515563367,0,200,99,0,0,1,0,260,100,0,0,0,0,1,0,0,0,0,0,39
477.800136991604,0,200,99,0,0,1,0,260,100,0,0,0,0,0,0,0,0,1,0,39
478.119197406939,0,200,99,0,0,1,0,259,100,1,0,0,0,0,0,0,0,0,0,40
479.269955342213,0,200,99,0,0,1,0,259,100,0,0,0,0,1,0,0,0,0,0,40
480.924943889876,0,200,99,0,0,1,0,259,100,0,0,0,0,0,0,0,0,1,0,40
481.262934209872,0,200,99,0,0,1,0,259,100,0,0,0,0,0,0,0,0,0,0,41
496.343579363014,0,200,99,0,0,1,0,258,100,1,0,0,0,0,0,0,0,0,0,41
497.721204310885,0,200,99,0,0,1,0,258,100,0,0,1,0,0,0,0,0,0,0,41
498.428258663282,0,200,99,0,0,1,0,258,100,0,0,0,0,0,0,1,0,0,0,41
499.443274584369,0,200,99,0,0,1,0,258,100,0,0,0,0,0,0,0,0,0,0,42
506.870483101505,0,200,99,0,0,1,0,257,100,1,0,0,0,0,0,0,0,0,0,42
509.816699925204,0,200,99,0,0,1,0,256,100,1,0,0,0,1,0,0,0,0,0,42
510.33377424025,0,200,99,0,0,1,0,256,100,0,0,1,0,0,0,1,0,0,0,42
512.821838395295,0,200,99,0,0,1,0,256,100,0,0,0,0,0,0,1,0,1,0,42
513.686410587114,0,200,99,0,0,1,0,256,100,0,0,0,0,0,0,0,0,0,0,44
515.914910650658,0,200,99,0,0,1,0,255,100,0,0,1,0,0,0,0,0,0,0,44
516.579658371007,0,200,99,0,0,1,0,255,100,0,0,0,0,0,0,1,0,0,0,44
517.912861998927,0,200,99,0,0,1,0,255,100,0,0,0,0,0,0,0,0,1,0,44
518.966953369831,0,200,99,0,0,1,0,255,100,0,0,0,0,0,0,0,0,0,0,45
567.051128090559,0,200,99,0,0,1,0,254,100,1,0,0,0,0,0,0,0,0,0,45
