Time,P_x1,P_x2,P_x3,P_x4,P_x5,P_x6,P_x7,P_x8,P_x9,P_x10,P_x11,P_x12,P_x13,P_x14,P_x15,P_x16,P_x17,P_x18,P_x19,P_x20
0,0,200,99,0,0,1,0,274,100,1,0,0,0,0,0,0,0,0,0,25
2.80295735965629,0,200,99,0,0,1,0,274,100,0,0,1,0,0,0,0,0,0,0,25
3.81534266800679,0,200,99,0,0,1,0,273,100,1,0,0,0,1,0,0,0,0,0,25
4.21414687833457,0,200,99,0,0,1,0,273,100,0,0,1,0,1,0,0,0,0,0,25
5.74729533572477,0,200,99,0,0,1,0,273,100,0,0,0,0,1,0,1,0,0,0,25
6.97798888387207,0,200,99,0,0,1,0,273,100,0,0,0,0,0,0,1,0,0,0,26
8.27405234808302,0,200,99,0,0,1,0,273,100,0,0,0,0,0,0,0,0,1,0,26
9.06568710939734,0,200,99,0,0,1,0,273,100,0,0,0,0,0,0,0,0,0,0,27
11.6086005101692,0,200,99,0,0,1,0,272,100,1,0,0,0,0,0,0,0,0,0,27
12.8184899063053,0,200,99,0,0,1,0,272,100,0,0,0,0,0,0,1,0,0,0,27
13.8794671705503,0,200,99,0,0,1,0,272,100,0,0,0,0,0,0,0,0,1,0,27
14.4791851526377,0,200,99,0,0,1,0,272,100,0,0,0,0,0,0,0,0,0,0,28
64.6896934079521,0,200,99,0,0,1,0,271,100,0,0,1,0,0,0,0,0,0,0,28
66.7642762208413,0,200,99,0,0,1,0,270,100,1,0,0,0,1,0,0,0,0,0,28
67.5498131698779,0,200,99,0,0,1,0,270,100,1,0,0,0,0,0,0,0,1,0,28
68.8365824037568,0,200,99,0,0,1,0,270,100,1,0,0,0,0,0,0,0,0,0,29
69.5767696192046,0,200,99,0,0,1,0,270,100,0,0,0,0,1,0,0,0,0,0,29
70.5440902750318,0,200,99,0,0,1,0,270,100,0,0,0,0,0,0,0,0,0,0,30
82.7927639783744,0,200,99,0,0,1,0,269,100,1,0,0,0,0,0,0,0,0,0,30
83.9116787386345,0,200,99,0,0,1,0,269,100,0,0,0,0,0,0,1,0,0,0,30
84.5382521059494,0,200,99,0,0,1,0,269,100,0,0,0,0,0,0,0,0,1,0,30
85.0161273142943,0,200,99,0,0,1,0,269,100,0,0,0,0,0,0,0,0,0,0,31
127.666627661312,0,200,99,0,0,1,0,268,100,1,0,0,0,0,0,0,0,0,0,31
128.19245131433,0,200,99,0,0,1,0,268,100,0,0,1,0,0,0,0,0,0,0,31
129.978768649993,0,200,99,0,0,1,0,268,100,0,0,0,0,0,0,1,0,0,0,31
131.005449685019,0,200,99,0,0,1,0,268,100,0,0,0,0,0,0,0,0,1,0,31
132.144140623164,0,200,99,0,0,1,0,268,100,0,0,0,0,0,0,0,0,0,0,32
139.734252301336,0,200,99,0,0,1,0,267,100,0,0,0,0,1,0,0,0,0,0,32
140.680213921918,0,200,99,0,0,1,0,267,100,0,0,0,0,0,0,0,0,1,0,32
143.994898546877,0,200,99,0,0,1,0,267,100,0,0,0,0,0,0,0,0,0,0,33
162.664758420536,0,200,99,0,0,1,0,266,100,1,0,0,0,0,0,0,0,0,0,33
163.899058344512,0,200,99,0,0,1,0,266,100,0,0,0,0,1,0,0,0,0,0,33
164.93265388779,0,200,99,0,0,1,0,265,100,1,0,0,0,0,0,0,0,0,0,34
165.405655182303,0,200,99,0,0,1,0,265,100,0,0,1,0,0,0,0,0,0,0,34
166.558132712867,0,200,99,0,0,1,0,265,100,0,0,0,0,1,0,0,0,0,0,34
167.557910328016,0,200,99,0,0,1,0,265,100,0,0,0,0,0,0,0,0,1,0,34
168.228402316702,0,200,99,0,0,1,0,265,100,0,0,0,0,0,0,0,0,0,0,35
182.656955537374,0,200,99,0,0,1,0,264,100,1,0,0,0,0,0,0,0,0,0,35
185.683915629782,0,200,99,0,0,1,0,264,100,0,0,0,0,0,0,1,0,0,0,35
187.084858498365,0,200,99,0,0,1,0,264,100,0,0,0,0,0,0,0,0,0,0,36
194.410673825516,0,200,99,0,0,1,0,263,100,1,0,0,0,0,0,0,0,0,0,36
196.895119032411,0,200,99,0,0,1,0,263,100,0,0,0,0,1,0,0,0,0,0,36
197.612658867134,0,200,99,0,0,1,0,263,100,0,0,0,0,0,0,0,0,1,0,36
200.191254485391,0,200,99,0,0,1,0,263,100,0,0,0,0,0,0,0,0,0,0,37
250.169732171617,0,200,99,0,0,1,0,262,100,0,0,1,0,0,0,0,0,0,0,37
251.943742662513,0,200,99,0,0,1,0,261,100,1,0,1,0,0,0,0,0,0,0,37
252.286153387698,0,200,99,0,0,1,0,261,100,1,0,0,0,1,0,0,0,0,0,37
253.957064055375,0,200,99,0,0,1,0,261,100,0,0,0,0,1,0,0,0,1,0,37
254.817558340922,0,200,99,0,0,1,0,261,100,0,0,0,0,0,0,1,0,1,0,37
255.521281351326,0,200,99,0,0,1,0,261,100,0,0,0,0,0,0,0,0,2,0,37
256.014770340733,0,200,99,0,0,1,0,260,100,1,0,0,0,0,0,0,0,2,0,37
257.833890981882,0,200,99,0,0,1,0,260,100,0,0,1,0,0,0,0,0,2,0,37
259.006646431385,0,200,99,0,0,1,0,260,100,0,0,1,0,0,0,0,0,1,0,38
260.919229812048,0,200,99,0,0,1,0,259,100,1,0,0,0,0,0,1,0,1,0,38
261.429960079233,0,200,99,0,0,1,0,259,100,1,0,0,0,0,0,0,0,0,0,40
262.76532692503,0,200,99,0,0,1,0,259,100,0,0,0,0,1,0,0,0,0,0,40
263.460701680847,0,200,99,0,0,1,0,259,100,0,0,0,0,0,0,0,0,1,0,40
264.396059934089,0,200,99,0,0,1,0,259,100,0,0,0,0,0,0,0,0,0,0,41
276.911107013063,0,200,99,0,0,1,0,258,100,1,0,0,0,0,0,0,0,0,0,41
277.543184559859,0,200,99,0,0,1,0,258,100,0,0,1,0,0,0,0,0,0,0,41
278.88979489761,0,200,99,0,0,1,0,258,100,0,0,0,0,1,0,0,0,0,0,41
280.784928153783,0,200,99,0,0,1,0,258,100,0,0,0,0,0,0,0,0,1,0,41
281.176680739026,0,200,99,0,0,1,0,258,100,0,0,0,0,0,0,0,0,0,0,42
283.629532269664,0,200,99,0,0,1,0,257,100,1,0,0,0,0,0,0,0,0,0,42
284.134444148234,0,200,99,0,0,1,0,257,100,0,0,0,0,1,0,0,0,0,0,42
285.876029198509,0,200,99,0,0,1,0,256,100,1,0,0,0,0,0,0,0,1,0,42
286.804630317719,0,200,99,0,0,1,0,256,100,0,0,1,0,0,0,0,0,0,0,43
287.737912259839,0,200,99,0,0,1,0,256,100,0,0,0,0,0,0,1,0,0,0,43
288.806440512248,0,200,99,0,0,1,0,256,100,0,0,0,0,0,0,0,0,1,0,43
289.236856072747,0,200,99,0,0,1,0,256,100,0,0,0,0,0,0,0,0,0,0,44
313.960916900128,0,200,99,0,0,1,0,254,100,1,0,1,0,0,0,0,0,0,0,44
314.885210995635,0,200,99,0,0,1,0,253,100,1,0,2,0,0,0,0,0,0,0,44
315.812279698273,0,200,99,0,0,1,0,253,100,1,0,0,0,2,0,0,0,0,0,44
316.641071430864,0,200,99,0,0,1,0,253,100,1,0,0,0,0,0,0,0,1,0,45
317.875952672139,0,200,99,0,0,1,0,253,100,0,0,0,0,1,0,0,0,1,0,45
318.458718299171,0,200,99,0,0,1,0,253,100,0,0,0,0,0,0,1,0,1,0,45
319.626511304613,0,200,99,0,0,1,0,253,100,0,0,0,0,0,0,0,0,1,0,46
323.436983202668,0,200,99,0,0,1,0,253,100,0,0,0,0,0,0,0,0,0,0,47
326.889518665634,0,200,99,0,0,1,0,252,100,0,0,0,0,1,0,0,0,0,0,47
327.951030048161,0,200,99,0,0,1,0,252,100,0,0,0,0,0,0,0,0,1,0,47
328.691663294649,0,200,99,0,0,1,0,252,100,0,0,0,0,0,0,0,0,0,0,48
350.954578152016,0,200,99,0,0,1,0,251,100,0,0,1,0,0,0,0,0,0,0,48
351.888339115209,0,200,99,0,0,1,0,251,100,0,0,0,0,1,0,0,0,0,0,48
352.492536457824,0,200,99,0,0,1,0,251,100,0,0,0,0,0,0,1,0,0,0,48
353.66316897855,0,200,99,0,0,1,0,251,100,0,0,0,0,0,0,0,0,0,0,49
416.230736138511,0,200,99,0,0,1,0,250,100,1,0,0,0,0,0,0,0,0,0,49
