Time,P_x1,P_x2,P_x3,P_x4,P_x5,P_x6,P_x7,P_x8,P_x9,P_x10,P_x11,P_x12,P_x13,P_x14,P_x15,P_x16,P_x17,P_x18,P_x19,P_x20
0,0,200,99,0,0,1,0,288,100,0,0,0,0,0,0,0,0,1,0,11
2.62660079868762,0,200,99,0,0,1,0,288,100,0,0,0,0,0,0,0,0,0,0,12
14.8270847485099,0,200,99,0,0,1,0,287,100,1,0,0,0,0,0,0,0,0,0,12
15.8604257781123,0,200,99,0,0,1,0,286,100,1,0,1,0,0,0,0,0,0,0,12
16.5769704046566,0,200,99,0,0,1,0,286,100,0,0,1,0,1,0,0,0,0,0,12
18.8408103834569,0,200,99,0,0,1,0,286,100,0,0,1,0,0,0,0,0,1,0,12
19.3042123592628,0,200,99,0,0,1,0,286,100,0,0,0,0,1,0,0,0,1,0,12
20.4586304836296,0,200,99,0,0,1,0,286,100,0,0,0,0,1,0,0,0,0,0,13
21.886962163552,0,200,99,0,0,1,0,286,100,0,0,0,0,0,0,1,0,0,0,13
22.9298327594686,0,200,99,0,0,1,0,286,100,0,0,0,0,0,0,0,0,0,0,14
28.4977699992553,0,200,99,0,0,1,0,285,100,1,0,0,0,0,0,0,0,0,0,14
29.0029891382305,0,200,99,0,0,1,0,285,100,0,0,1,0,0,0,0,0,0,0,14
30.1998828953314,0,200,99,0,0,1,0,285,100,0,0,0,0,1,0,0,0,0,0,14
32.8358074833468,0,200,99,0,0,1,0,285,100,0,0,0,0,0,0,1,0,0,0,14
34.1634457688246,0,200,99,0,0,1,0,285,100,0,0,0,0,0,0,0,0,1,0,14
35.4914168251976,0,200,99,0,0,1,0,285,100,0,0,0,0,0,0,0,0,0,0,15
58.6780406652439,0,200,99,0,0,1,0,284,100,1,0,0,0,0,0,0,0,0,0,15
59.109329941215,0,200,99,0,0,1,0,284,100,0,0,1,0,0,0,0,0,0,0,15
60.6664782371251,0,200,99,0,0,1,0,284,100,0,0,0,0,0,0,1,0,0,0,15
62.4116565978926,0,200,99,0,0,1,0,284,100,0,0,0,0,0,0,0,0,1,0,15
63.9291794711734,0,200,99,0,0,1,0,284,100,0,0,0,0,0,0,0,0,0,0,16
86.4436692474415,0,200,99,0,0,1,0,283,100,1,0,0,0,0,0,0,0,0,0,16
88.999289642263,0,200,99,0,0,1,0,283,100,0,0,0,0,1,0,0,0,0,0,16
91.9884856436868,0,200,99,0,0,1,0,283,100,0,0,0,0,0,0,0,0,1,0,16
93.3470560560477,0,200,99,0,0,1,0,283,100,0,0,0,0,0,0,0,0,0,0,17
118.334323117807,0,200,99,0,0,1,0,282,100,0,0,1,0,0,0,0,0,0,0,17
119.147943675901,0,200,99,0,0,1,0,282,100,0,0,0,0,1,0,0,0,0,0,17
120.784973472917,0,200,99,0,0,1,0,281,100,1,0,0,0,0,0,0,0,1,0,17
122.440027959561,0,200,99,0,0,1,0,281,100,0,0,1,0,0,0,0,0,0,0,18
123.963643640157,0,200,99,0,0,1,0,281,100,0,0,0,0,0,0,1,0,0,0,18
124.727829045046,0,200,99,0,0,1,0,281,100,0,0,0,0,0,0,0,0,0,0,19
127.658767936499,0,200,99,0,0,1,0,280,100,1,0,0,0,0,0,0,0,0,0,19
128.467754707332,0,200,99,0,0,1,0,280,100,0,0,1,0,0,0,0,0,0,0,19
129.885039874269,0,200,99,0,0,1,0,280,100,0,0,0,0,1,0,0,0,0,0,19
131.261599182438,0,200,99,0,0,1,0,280,100,0,0,0,0,0,0,1,0,0,0,19
132.640470084572,0,200,99,0,0,1,0,280,100,0,0,0,0,0,0,0,0,1,0,19
133.049950622367,0,200,99,0,0,1,0,280,100,0,0,0,0,0,0,0,0,0,0,20
134.859358047435,0,200,99,0,0,1,0,279,100,1,0,0,0,0,0,0,0,0,0,20
135.040668761998,0,200,99,0,0,1,0,279,100,0,0,1,0,0,0,0,0,0,0,20
137.81941411258,0,200,99,0,0,1,0,279,100,0,0,0,0,0,0,0,0,1,0,20
138.319365633951,0,200,99,0,0,1,0,279,100,0,0,0,0,0,0,0,0,0,0,21
153.30229477495,0,200,99,0,0,1,0,278,100,1,0,0,0,0,0,0,0,0,0,21
155.512677932083,0,200,99,0,0,1,0,278,100,0,0,0,0,1,0,0,0,0,0,21
157.499076455657,0,200,99,0,0,1,0,278,100,0,0,0,0,0,0,0,0,0,0,22
171.721431378622,0,200,99,0,0,1,0,277,100,1,0,0,0,0,0,0,0,0,0,22
172.603692997744,0,200,99,0,0,1,0,277,100,0,0,0,0,1,0,0,0,0,0,22
173.86775163997,0,200,99,0,0,1,0,276,100,1,0,0,0,0,0,1,0,0,0,22
175.584754751626,0,200,99,0,0,1,0,276,100,0,0,1,0,0,0,0,0,1,0,22
176.409233948086,0,200,99,0,0,1,0,276,100,0,0,1,0,0,0,0,0,0,0,23
178.861251459349,0,200,99,0,0,1,0,276,100,0,0,0,0,0,0,0,0,1,0,23
179.224687394228,0,200,99,0,0,1,0,276,100,0,0,0,0,0,0,0,0,0,0,24
186.260205797213,0,200,99,0,0,1,0,275,100,1,0,0,0,0,0,0,0,0,0,24
187.618874445632,0,200,99,0,0,1,0,275,100,0,0,1,0,0,0,0,0,0,0,24
188.412990325285,0,200,99,0,0,1,0,275,100,0,0,0,0,0,0,1,0,0,0,24
191.757378276296,0,200,99,0,0,1,0,275,100,0,0,0,0,0,0,0,0,0,0,25
204.64530159039,0,200,99,0,0,1,0,273,100,2,0,0,0,0,0,0,0,0,0,25
205.86369287923,0,200,99,0,0,1,0,273,100,1,0,1,0,0,0,0,0,0,0,25
206.021642250806,0,200,99,0,0,1,0,273,100,0,0,2,0,0,0,0,0,0,0,25
207.689188034973,0,200,99,0,0,1,0,273,100,0,0,0,0,1,0,1,0,0,0,25
208.32964225802,0,200,99,0,0,1,0,273,100,0,0,0,0,0,0,1,0,1,0,25
209.640439862976,0,200,99,0,0,1,0,273,100,0,0,0,0,0,0,0,0,0,0,27
216.597305972226,0,200,99,0,0,1,0,272,100,0,0,1,0,0,0,0,0,0,0,27
218.433770487007,0,200,99,0,0,1,0,272,100,0,0,0,0,1,0,0,0,0,0,27
219.887757933708,0,200,99,0,0,1,0,272,100,0,0,0,0,0,0,1,0,0,0,27
220.264988085375,0,200,99,0,0,1,0,272,100,0,0,0,0,0,0,0,0,1,0,27
222.445134910867,0,200,99,0,0,1,0,272,100,0,0,0,0,0,0,0,0,0,0,28
280.601027945484,0,200,99,0,0,1,0,271,100,1,0,0,0,0,0,0,0,0,0,28
281.756553635584,0,200,99,0,0,1,0,271,100,0,0,1,0,0,0,0,0,0,0,28
282.891532951023,0,200,99,0,0,1,0,271,100,0,0,0,0,1,0,0,0,0,0,28
285.954025720127,0,200,99,0,0,1,0,271,100,0,0,0,0,0,0,1,0,0,0,28
287.805889534368,0,200,99,0,0,1,0,271,100,0,0,0,0,0,0,0,0,0,0,29
296.335505989717,0,200,99,0,0,1,0,270,100,1,0,0,0,0,0,0,0,0,0,29
299.641564302731,0,200,99,0,0,1,0,270,100,0,0,1,0,0,0,0,0,0,0,29
300.971928205891,0,200,99,0,0,1,0,270,100,0,0,0,0,0,0,1,0,0,0,29
303.202154484097,0,200,99,0,0,1,0,270,100,0,0,0,0,0,0,0,0,1,0,29
304.352532915691,0,200,99,0,0,1,0,270,100,0,0,0,0,0,0,0,0,0,0,30
322.421123782955,0,200,99,0,0,1,0,269,100,1,0,0,0,0,0,0,0,0,0,30
323.797026186125,0,200,99,0,0,1,0,269,100,0,0,0,0,1,0,0,0,0,0,30
324.540798703634,0,200,99,0,0,1,0,269,100,0,0,0,0,0,0,1,0,0,0,30
325.442183828837,0,200,99,0,0,1,0,269,100,0,0,0,0,0,0,0,0,0,0,31
347.989427427307,0,200,99,0,0,1,0,268,100,1,0,0,0,0,0,0,0,0,0,31
349.954591872076,0,200,99,0,0,1,0,268,100,0,0,1,0,0,0,0,0,0,0,31
350.425392986076,0,200,99,0,0,1,0,268,100,0,0,0,0,1,0,0,0,0,0,31
351.937351015045,0,200,99,0,0,1,0,268,100,0,0,0,0,0,0,1,0,0,0,31
352.487963405021,0,200,99,0,0,1,0,268,100,0,0,0,0,0,0,0,0,0,0,32
369.486338974873,0,200,99,0,0,1,0,267,100,0,0,0,0,1,0,0,0,0,0,32
372.970066782312,0,200,99,0,0,1,0,267,100,0,0,0,0,0,0,0,0,1,0,32
374.312989170747,0,200,99,0,0,1,0,267,100,0,0,0,0,0,0,0,0,0,0,33
377.247481582333,0,200,99,0,0,1,0,266,100,1,0,0,0,0,0,0,0,0,0,33
379.970176648093,0,200,99,0,0,1,0,266,100,0,0,0,0,1,0,0,0,0,0,33
380.525706139392,0,200,99,0,0,1,0,266,100,0,0,0,0,0,0,1,0,0,0,33
385.546129153692,0,200,99,0,0,1,0,266,100,0,0,0,0,0,0,0,0,1,0,33
387.378313148131,0,200,99,0,0,1,0,266,100,0,0,0,0,0,0,0,0,0,0,34
411.916544887982,0,200,99,0,0,1,0,265,100,1,0,0,0,0,0,0,0,0,0,34
413.866428721465,0,200,99,0,0,1,0,264,100,1,0,1,0,0,0,0,0,0,0,34
414.302494934314,0,200,99,0,0,1,0,264,100,1,0,0,0,1,0,0,0,0,0,34
415.264286354006,0,200,99,0,0,1,0,264,100,0,0,1,0,1,0,0,0,0,0,34
416.837249243292,0,200,99,0,0,1,0,264,100,0,0,0,0,1,0,0,0,1,0,34
417.876309672011,0,200,99,0,0,1,0,264,100,0,0,0,0,0,0,1,0,0,0,35
419.716367667416,0,200,99,0,0,1,0,264,100,0,0,0,0,0,0,0,0,0,0,36
497.562189217669,0,200,99,0,0,1,0,263,100,0,0,1,0,0,0,0,0,0,0,36
498.762031673776,0,200,99,0,0,1,0,263,100,0,0,0,0,1,0,0,0,0,0,36
500.498699887921,0,200,99,0,0,1,0,263,100,0,0,0,0,0,0,0,0,1,0,36
505.845359049646,0,200,99,0,0,1,0,263,100,0,0,0,0,0,0,0,0,0,0,37
579.187486816567,0,200,99,0,0,1,0,262,100,1,0,0,0,0,0,0,0,0,0,37
580.699113472461,0,200,99,0,0,1,0,262,100,0,0,0,0,1,0,0,0,0,0,37
583.59529495414,0,200,99,0,0,1,0,262,100,0,0,0,0,0,0,1,0,0,0,37
585.400804713158,0,200,99,0,0,1,0,262,100,0,0,0,0,0,0,0,0,0,0,38
599.241265474799,0,200,99,0,0,1,0,261,100,1,0,0,0,0,0,0,0,0,0,38
601.891835825766,0,200,99,0,0,1,0,261,100,0,0,0,0,0,0,1,0,0,0,38
602.46136140264,0,200,99,0,0,1,0,261,100,0,0,0,0,0,0,0,0,0,0,39
606.97228521032,0,200,99,0,0,1,0,260,100,1,0,0,0,0,0,0,0,0,0,39
608.457705037155,0,200,99,0,0,1,0,260,100,0,0,0,0,1,0,0,0,0,0,39
609.647295551096,0,200,99,0,0,1,0,260,100,0,0,0,0,0,0,1,0,0,0,39
611.285681297346,0,200,99,0,0,1,0,260,100,0,0,0,0,0,0,0,0,1,0,39
613.009942778241,0,200,99,0,0,1,0,260,100,0,0,0,0,0,0,0,0,0,0,40
653.572143339817,0,200,99,0,0,1,0,259,100,1,0,0,0,0,0,0,0,0,0,40
